{
  "IcoMoonType": "selection",
  "icons": [
    {
      "icon": {
        "paths": [
          "M249.6 637.834l161.653 93.331 186.666-323.307-161.598-93.333-186.72 323.307zM229.707 687.963l27.414 123.574 120.747-38.082-148.16-85.493zM462.933 268.338l161.598 93.333 47.258-81.76-161.656-93.333-47.2 81.76zM170.667 667.966l320-554.189 253.974 146.613-319.894 554.242-207.040 65.28-47.040-211.946zM490.667 879.861v-53.333h373.333v53.333h-373.333z"
        ],
        "attrs": [{}],
        "isMulticolor": false,
        "isMulticolor2": false,
        "grid": 0,
        "tags": ["fluent_arrow-export-ltr-20-regular (2) (1)"],
        "colorPermutations": { "1311381441168168168181822511": [{}] }
      },
      "attrs": [{}],
      "properties": {
        "order": 86,
        "id": 47,
        "name": "edit",
        "prevSize": 32,
        "code": 59686
      },
      "setIdx": 0,
      "setId": 1,
      "iconIdx": 0
    },
    {
      "icon": {
        "paths": [
          "M455.11 295.11h142.222c0-18.859-7.493-36.947-20.827-50.283-13.338-13.336-31.424-20.829-50.285-20.829s-36.947 7.493-50.283 20.829c-13.336 13.336-20.827 31.422-20.827 50.283zM401.778 295.11c0-16.342 3.219-32.525 9.474-47.622s15.421-28.818 26.976-40.373c11.555-11.555 25.275-20.722 40.373-26.976s31.28-9.474 47.622-9.474c16.342 0 32.525 3.219 47.622 9.474s28.819 15.421 40.374 26.976 20.725 25.275 26.978 40.373c6.251 15.098 9.472 31.28 9.472 47.622h204.442c7.077 0 13.858 2.81 18.859 7.81s7.811 11.784 7.811 18.856c0 7.072-2.81 13.854-7.811 18.856s-11.782 7.81-18.859 7.81h-46.928l-41.603 430.614c-3.19 32.997-18.557 63.619-43.106 85.898s-56.514 34.611-89.662 34.6h-215.179c-33.142 0.006-65.099-12.334-89.638-34.611s-39.901-52.894-43.091-85.885l-41.637-430.614h-46.933c-7.072 0-13.854-2.81-18.856-7.81s-7.81-11.784-7.81-18.856c0-7.072 2.81-13.854 7.81-18.856s11.784-7.81 18.856-7.81h204.443zM472.89 464c0-7.072-2.81-13.854-7.81-18.856s-11.784-7.81-18.856-7.81c-7.072 0-13.854 2.81-18.856 7.81s-7.81 11.784-7.81 18.856v266.67c0 7.070 2.81 13.851 7.81 18.853s11.784 7.811 18.856 7.811c7.072 0 13.854-2.81 18.856-7.811s7.81-11.782 7.81-18.853v-266.67zM606.219 437.333c7.077 0 13.858 2.81 18.859 7.81s7.811 11.784 7.811 18.856v266.67c0 7.070-2.81 13.853-7.811 18.853s-11.782 7.811-18.859 7.811c-7.070 0-13.851-2.81-18.853-7.811s-7.811-11.782-7.811-18.853v-266.67c0-7.072 2.81-13.854 7.811-18.856s11.782-7.81 18.853-7.81zM338.987 773.939c1.918 19.792 11.138 38.162 25.862 51.523s33.898 20.765 53.782 20.758h215.179c19.888 0.006 39.061-7.395 53.782-20.758 14.73-13.363 23.946-31.733 25.867-51.523l41.17-425.494h-456.818l41.173 425.494z"
        ],
        "attrs": [{}],
        "isMulticolor": false,
        "isMulticolor2": false,
        "grid": 0,
        "tags": ["fluent_arrow-export-ltr-20-regular (3) (1)"],
        "colorPermutations": { "1311381441168168168181822511": [{}] }
      },
      "attrs": [{}],
      "properties": {
        "order": 85,
        "id": 46,
        "name": "trash",
        "prevSize": 32,
        "code": 59687
      },
      "setIdx": 0,
      "setId": 1,
      "iconIdx": 1
    },
    {
      "icon": {
        "paths": [
          "M786.118 584.381v144.76c0 35.89-12.739 66.574-38.226 92.061-25.482 25.48-56.17 38.224-92.061 38.224h-376.382c-35.89 0-66.574-12.747-92.061-38.224-25.483-25.486-38.226-56.174-38.226-92.061v-376.382c0-35.89 12.742-66.574 38.226-92.061s56.17-38.224 92.061-38.224h318.474c4.222 0 7.688 1.357 10.403 4.070s4.070 6.182 4.070 10.403v28.954c0 4.222-1.357 7.69-4.070 10.403s-6.182 4.070-10.403 4.070h-318.474c-19.902 0-36.946 7.090-51.118 21.259s-21.259 31.214-21.259 51.118v376.382c0 19.902 7.088 36.946 21.259 51.118 14.174 14.174 31.214 21.261 51.118 21.261h376.382c19.902 0 36.946-7.091 51.117-21.261 14.174-14.174 21.259-31.214 21.259-51.118v-144.76c0-4.222 1.358-7.688 4.070-10.403s6.182-4.070 10.405-4.070h28.954c4.227 0 7.693 1.357 10.403 4.070s4.072 6.182 4.072 10.403zM959.834 193.525v231.618c0 7.842-2.862 14.626-8.594 20.357s-12.515 8.597-20.362 8.597c-7.837 0-14.622-2.866-20.354-8.597l-79.619-79.618-294.954 294.954c-3.018 3.018-6.483 4.525-10.405 4.525s-7.39-1.509-10.403-4.525l-51.573-51.573c-3.018-3.018-4.525-6.483-4.525-10.403s1.507-7.39 4.525-10.403l294.954-294.954-79.618-79.618c-5.731-5.731-8.597-12.517-8.597-20.357s2.866-14.626 8.597-20.357c5.731-5.731 12.515-8.597 20.357-8.597h231.616c7.845 0 14.629 2.866 20.362 8.597s8.594 12.517 8.594 20.357z"
        ],
        "attrs": [{}],
        "width": 1109,
        "isMulticolor": false,
        "isMulticolor2": false,
        "grid": 0,
        "tags": ["fa_external-link (1)"],
        "colorPermutations": { "1311381441168168168181822511": [{}] }
      },
      "attrs": [{}],
      "properties": {
        "order": 84,
        "id": 45,
        "name": "external-link",
        "prevSize": 32,
        "code": 59688
      },
      "setIdx": 0,
      "setId": 1,
      "iconIdx": 2
    },
    {
      "icon": {
        "paths": [
          "M483.555 967.11c235.651 0 426.667-191.016 426.667-426.667 0-235.648-191.016-426.667-426.667-426.667-235.648 0-426.667 191.019-426.667 426.667 0 235.651 191.019 426.667 426.667 426.667zM274.234 810.098l478.976-478.976c51.053 65.67 76.368 147.725 71.186 230.744-5.178 83.021-40.494 161.29-99.31 220.107s-137.085 94.134-220.107 99.31c-83.019 5.182-165.072-20.133-230.744-71.186zM213.902 749.766c-51.051-65.674-76.366-147.723-71.189-230.744s40.494-161.291 99.312-220.109c58.818-58.818 137.090-94.133 220.107-99.312s165.070 20.136 230.744 71.187l-478.976 478.976z"
        ],
        "attrs": [{}],
        "isMulticolor": false,
        "isMulticolor2": false,
        "grid": 0,
        "tags": ["fluent_arrow-export-ltr-20-regular (4) (1)"],
        "colorPermutations": { "1311381441168168168181822511": [{}] }
      },
      "attrs": [{}],
      "properties": {
        "order": 83,
        "id": 44,
        "name": "disable",
        "prevSize": 32,
        "code": 59689
      },
      "setIdx": 0,
      "setId": 1,
      "iconIdx": 3
    },
    {
      "icon": {
        "paths": [
          "M906.667 288v608c0 33.947-13.485 66.506-37.491 90.509-24.003 24.006-56.562 37.491-90.509 37.491h-64v-64h64c16.974 0 33.251-6.742 45.254-18.746s18.746-28.278 18.746-45.254v-608h-128c-25.461 0-49.878-10.114-67.883-28.117s-28.117-42.421-28.117-67.883v-128h-352c-16.973 0-33.251 6.742-45.254 18.746s-18.746 28.282-18.746 45.254v576h-64v-576c0-33.949 13.486-66.506 37.49-90.51s56.562-37.49 90.51-37.49h352l288 288zM235.755 949.824c0.366 10.083 2.838 19.981 7.259 29.053 4.418 9.070 10.688 17.118 18.403 23.619 8.32 6.912 18.496 12.288 30.592 16.128 12.16 3.904 26.304 5.824 42.56 5.824 21.632 0 39.936-3.392 54.976-10.112 15.104-6.72 26.624-16.128 34.496-28.16 8-12.096 11.968-26.112 11.968-41.984 0-14.336-2.88-26.24-8.576-35.84-5.858-9.589-14.134-17.467-24-22.848-11.338-6.262-23.546-10.794-36.224-13.44l-39.744-9.216c-9.37-1.722-18.218-5.574-25.856-11.264-2.922-2.253-5.274-5.154-6.874-8.477s-2.402-6.974-2.342-10.659c0-9.984 3.968-18.176 11.84-24.576 8-6.464 18.944-9.728 32.768-9.728 9.152 0 17.024 1.472 23.68 4.352 6.126 2.498 11.538 6.478 15.744 11.584 3.938 4.75 6.582 10.438 7.68 16.512h48c-0.798-13.034-5.234-25.582-12.8-36.224-8.090-11.488-19.15-20.558-32-26.24-15.715-6.894-32.766-10.218-49.92-9.728-18.752 0-35.264 3.2-49.664 9.6-14.4 6.336-25.6 15.36-33.728 26.944-8.128 11.648-12.16 25.28-12.16 40.896 0 12.864 2.56 24.064 7.808 33.536 5.248 9.536 12.8 17.28 22.528 23.488 9.728 6.080 21.248 10.688 34.496 13.632l39.552 9.216c13.248 3.136 23.104 7.232 29.632 12.352 3.189 2.43 5.741 5.598 7.435 9.234 1.696 3.635 2.482 7.626 2.293 11.63 0.125 6.595-1.774 13.074-5.44 18.56-4.122 5.619-9.794 9.91-16.32 12.352-7.104 3.008-15.936 4.48-26.432 4.48-7.488 0-14.272-0.832-20.48-2.56-5.658-1.568-11.021-4.054-15.872-7.36-4.259-2.758-7.907-6.363-10.715-10.59-2.806-4.227-4.715-8.99-5.603-13.986h-48.96zM62.251 876.352c0-15.872 2.176-29.44 6.528-40.512 3.797-10.226 10.518-19.106 19.328-25.536 8.979-6.003 19.603-9.067 30.4-8.768 9.6 0 18.112 2.048 25.472 6.208 7.213 3.854 13.234 9.61 17.408 16.64 4.461 7.403 7.093 15.762 7.68 24.384h48.96v-4.608c-0.426-11.789-3.296-23.36-8.429-33.982-5.134-10.619-12.419-20.058-21.395-27.714-9.194-7.79-19.827-13.707-31.296-17.408-12.49-4.227-25.598-6.326-38.784-6.208-22.784 0-42.24 4.736-58.304 14.272-16 9.472-28.16 22.976-36.608 40.448-8.32 17.536-12.544 38.4-12.544 62.656v31.872c0 24.256 4.096 45.056 12.352 62.464 8.384 17.344 20.608 30.72 36.608 40.064 16 9.28 35.456 13.888 58.496 13.888 18.752 0 35.456-3.52 50.24-10.496 14.72-7.040 26.496-16.64 35.2-29.056 8.829-12.707 13.846-27.674 14.464-43.136v-4.864h-48.896c-0.605 8.242-3.195 16.211-7.552 23.232-4.266 6.797-10.277 12.322-17.408 16-7.992 3.866-16.789 5.774-25.664 5.568-10.813 0.307-21.469-2.637-30.592-8.448-8.763-6.24-15.435-14.987-19.136-25.088-4.678-12.846-6.894-26.461-6.528-40.128v-31.744zM589.547 1019.584h-60.992l-85.632-255.936h58.688l57.344 200.832h2.432l56.832-200.832h56.256l-84.928 255.936z"
        ],
        "attrs": [{}],
        "width": 917,
        "isMulticolor": false,
        "isMulticolor2": false,
        "grid": 0,
        "tags": ["Vector (34) (1)"],
        "colorPermutations": { "1311381441168168168181822511": [{}] }
      },
      "attrs": [{}],
      "properties": {
        "order": 82,
        "id": 43,
        "name": "file-csv",
        "prevSize": 32,
        "code": 59690
      },
      "setIdx": 0,
      "setId": 1,
      "iconIdx": 4
    },
    {
      "icon": {
        "paths": [
          "M480 64c-265.096 0-480 214.904-480 480 0 265.098 214.904 480 480 480 265.098 0 480-214.902 480-480 0-265.096-214.902-480-480-480zM751.59 704c8.58-40.454 13.996-83.392 15.758-128h127.446c-3.336 44.196-13.624 87.114-30.68 128h-112.524zM208.41 384c-8.58 40.454-13.996 83.392-15.758 128h-127.444c3.336-44.194 13.622-87.114 30.678-128h112.524zM686.036 384c9.614 40.962 15.398 83.854 17.28 128h-191.316v-128h174.036zM512 320v-187.338c14.59 4.246 29.044 11.37 43.228 21.37 26.582 18.74 52.012 47.608 73.54 83.486 14.882 24.802 27.752 52.416 38.496 82.484h-155.264zM331.232 237.516c21.528-35.878 46.956-64.748 73.54-83.486 14.182-10 28.638-17.124 43.228-21.37v187.34h-155.264c10.746-30.066 23.616-57.68 38.496-82.484zM448 384v128h-191.314c1.88-44.146 7.666-87.038 17.278-128h174.036zM95.888 704c-17.056-40.886-27.342-83.804-30.678-128h127.444c1.762 44.608 7.178 87.546 15.758 128h-112.524zM256.686 576h191.314v128h-174.036c-9.612-40.96-15.398-83.854-17.278-128zM448 768v187.34c-14.588-4.246-29.044-11.372-43.228-21.37-26.584-18.74-52.014-47.61-73.54-83.486-14.882-24.804-27.75-52.418-38.498-82.484h155.266zM628.768 850.484c-21.528 35.876-46.958 64.746-73.54 83.486-14.184 9.998-28.638 17.124-43.228 21.37v-187.34h155.266c-10.746 30.066-23.616 57.68-38.498 82.484zM512 704v-128h191.314c-1.88 44.146-7.666 87.040-17.28 128h-174.034zM767.348 512c-1.762-44.608-7.178-87.546-15.758-128h112.524c17.056 40.886 27.344 83.806 30.68 128h-127.446zM830.658 320h-95.9c-18.638-58.762-44.376-110.294-75.316-151.428 42.536 20.34 81.058 47.616 114.714 81.272 21.48 21.478 40.362 44.938 56.502 70.156zM185.844 249.844c33.658-33.658 72.18-60.932 114.714-81.272-30.942 41.134-56.676 92.666-75.316 151.428h-95.898c16.138-25.218 35.022-48.678 56.5-70.156zM129.344 768h95.898c18.64 58.762 44.376 110.294 75.318 151.43-42.536-20.34-81.058-47.616-114.714-81.274-21.48-21.478-40.364-44.938-56.502-70.156zM774.156 838.156c-33.656 33.658-72.18 60.934-114.714 81.274 30.942-41.134 56.678-92.668 75.316-151.43h95.9c-16.14 25.218-35.022 48.678-56.502 70.156z"
        ],
        "attrs": [{}],
        "isMulticolor": false,
        "isMulticolor2": false,
        "grid": 0,
        "tags": ["sphere"],
        "colorPermutations": { "1311381441168168168181822511": [{}] }
      },
      "attrs": [{}],
      "properties": {
        "order": 81,
        "id": 42,
        "name": "globe",
        "prevSize": 32,
        "code": 59691
      },
      "setIdx": 0,
      "setId": 1,
      "iconIdx": 5
    },
    {
      "icon": {
        "paths": [
          "M426.708 170.662c-141.385 0-256 114.615-256 255.999s114.615 256.001 256 256.001c141.385 0 255.999-114.616 255.999-256.001s-114.614-255.999-255.999-255.999zM85.375 426.661c0-188.513 152.82-341.333 341.334-341.333s341.336 152.82 341.336 341.333c0 78.879-26.758 151.508-71.686 209.308l229.856 229.855c16.659 16.666 16.659 43.68 0 60.339-16.666 16.666-43.68 16.666-60.346 0l-229.853-229.856c-57.8 44.934-130.429 71.686-209.308 71.686-188.513 0-341.334-152.819-341.334-341.332z"
        ],
        "attrs": [],
        "isMulticolor": false,
        "isMulticolor2": false,
        "grid": 0,
        "tags": ["search (1)"],
        "colorPermutations": {}
      },
      "attrs": [],
      "properties": {
        "order": 80,
        "id": 41,
        "name": "search",
        "prevSize": 32,
        "code": 59692
      },
      "setIdx": 0,
      "setId": 1,
      "iconIdx": 6
    },
    {
      "icon": {
        "paths": [
          "M511.967 341.331c23.565 0 42.668 19.102 42.668 42.666v85.334h85.33c23.567 0 42.67 19.102 42.67 42.666s-19.103 42.667-42.67 42.667h-85.33v85.335c0 23.562-19.103 42.665-42.668 42.665s-42.666-19.103-42.666-42.665v-85.335h-85.334c-23.564 0-42.666-19.103-42.666-42.667s19.102-42.666 42.666-42.666h85.334v-85.334c0-23.564 19.102-42.666 42.666-42.666z",
          "M234.936 234.968c-44.031 44.032-64.303 123.125-64.303 277.030 0 153.904 20.272 232.998 64.303 277.030s123.125 64.302 277.030 64.302c153.905 0 232.998-20.27 277.030-64.302s64.302-123.126 64.302-277.030c0-153.905-20.27-232.998-64.302-277.030s-123.126-64.303-277.030-64.303c-153.905 0-232.998 20.272-277.030 64.303zM174.597 174.628c71.169-71.168 184.075-89.296 337.37-89.296s266.202 18.128 337.37 89.296c71.168 71.169 89.298 184.075 89.298 337.37s-18.13 266.201-89.298 337.369c-71.168 71.168-184.074 89.298-337.37 89.298s-266.202-18.13-337.37-89.298c-71.168-71.168-89.296-184.074-89.296-337.369s18.128-266.202 89.296-337.37z"
        ],
        "attrs": [],
        "isMulticolor": false,
        "isMulticolor2": false,
        "grid": 0,
        "tags": ["square-rounded-plus"],
        "colorPermutations": {}
      },
      "attrs": [],
      "properties": {
        "order": 79,
        "id": 40,
        "name": "plus-square-rounded",
        "prevSize": 32,
        "code": 59693
      },
      "setIdx": 0,
      "setId": 1,
      "iconIdx": 7
    },
    {
      "icon": {
        "paths": [
          "M134.854 511.999c106.578 176.237 232.658 256.001 377.182 256.001 144.517 0 270.597-79.764 377.175-256.001-106.578-176.236-232.658-256-377.175-256-144.524 0-270.603 79.764-377.182 256zM48.322 490.829c118.418-207.221 272.564-320.164 463.714-320.164 191.145 0 345.288 112.943 463.708 320.164 7.496 13.118 7.496 29.219 0 42.337-118.42 207.222-272.563 320.164-463.708 320.164-191.15 0-345.295-112.942-463.714-320.164-7.496-13.117-7.496-29.219 0-42.337zM512.036 469.332c-23.567 0-42.669 19.102-42.669 42.666 0 23.563 19.102 42.666 42.669 42.666 23.562 0 42.665-19.103 42.665-42.666 0-23.564-19.103-42.666-42.665-42.666zM384.033 511.999c0-70.692 57.308-128 128.003-128 70.692 0 128 57.308 128 128s-57.308 128.001-128 128.001c-70.695 0-128.003-57.308-128.003-128.001z"
        ],
        "attrs": [],
        "isMulticolor": false,
        "isMulticolor2": false,
        "grid": 0,
        "tags": ["Preview"],
        "colorPermutations": {}
      },
      "attrs": [],
      "properties": {
        "order": 78,
        "id": 39,
        "name": "eye",
        "prevSize": 32,
        "code": 59694
      },
      "setIdx": 0,
      "setId": 1,
      "iconIdx": 8
    },
    {
      "icon": {
        "paths": [
          "M42.667 85.278c0-39.274 31.838-71.111 71.111-71.111h1137.781c39.27 0 71.108 31.838 71.108 71.111s-31.838 71.111-71.108 71.111h-1137.781c-39.273 0-71.111-31.837-71.111-71.111zM42.667 511.945c0-39.274 31.838-71.111 71.111-71.111h1137.781c39.27 0 71.108 31.837 71.108 71.111s-31.838 71.111-71.108 71.111h-1137.781c-39.273 0-71.111-31.837-71.111-71.111zM42.667 938.607c0-39.27 31.838-71.108 71.111-71.108h1137.781c39.27 0 71.108 31.838 71.108 71.108 0 39.279-31.838 71.117-71.108 71.117h-1137.781c-39.273 0-71.111-31.838-71.111-71.117z"
        ],
        "attrs": [],
        "width": 1365,
        "isMulticolor": false,
        "isMulticolor2": false,
        "grid": 0,
        "tags": ["hamburger"],
        "colorPermutations": { "1311381441168168168181822511": [] }
      },
      "attrs": [],
      "properties": {
        "order": 40,
        "id": 38,
        "name": "hamburger",
        "prevSize": 32,
        "code": 59685
      },
      "setIdx": 0,
      "setId": 1,
      "iconIdx": 9
    },
    {
      "icon": {
        "paths": [
          "M721.655 600.276c-8.778 0-17.2 3.489-23.407 9.696s-9.696 14.629-9.696 23.407c0 8.778 3.489 17.2 9.696 23.407s14.629 9.696 23.407 9.696h110.345c8.778 0 17.2-3.489 23.407-9.696s9.696-14.629 9.696-23.407c0-8.778-3.489-17.2-9.696-23.407s-14.629-9.696-23.407-9.696h-110.345zM26.483 147.862c0-32.192 12.788-63.065 35.551-85.828s53.636-35.551 85.828-35.551h595.862c32.192 0 63.064 12.788 85.829 35.551 22.761 22.763 35.55 53.636 35.55 85.828v55.526c41.896 2.799 81.164 21.418 109.847 52.085s44.639 71.089 44.636 113.079v463.448c0 43.898-17.44 85.998-48.478 117.040-31.041 31.038-73.142 48.478-117.040 48.478h-661.892c-43.898 0-85.998-17.44-117.038-48.478-31.041-31.041-48.479-73.142-48.479-117.040v-463.448h-0.177v-209.655h0.486c-0.327-3.669-0.489-7.351-0.486-11.034zM854.069 269.241h-761.203v562.759c0 26.338 10.463 51.599 29.087 70.222 18.624 18.626 43.884 29.089 70.223 29.089h661.892c26.338 0 51.599-10.462 70.222-29.089 18.626-18.623 29.089-43.884 29.089-70.222v-463.448c0-26.339-10.462-51.599-29.089-70.223-18.623-18.624-43.884-29.087-70.222-29.087zM798.897 147.862c0-30.455-24.717-55.172-55.172-55.172h-595.862c-14.633 0-28.666 5.813-39.013 16.16s-16.16 24.38-16.16 39.013c0 14.633 5.813 28.666 16.16 39.013s24.38 16.16 39.013 16.16h651.034v-55.172z"
        ],
        "attrs": [],
        "isMulticolor": false,
        "isMulticolor2": false,
        "grid": 0,
        "tags": ["wallet"],
        "colorPermutations": { "1311381441168168168181822511": [] }
      },
      "attrs": [],
      "properties": {
        "order": 41,
        "id": 37,
        "name": "wallet",
        "prevSize": 32,
        "code": 59684
      },
      "setIdx": 0,
      "setId": 1,
      "iconIdx": 10
    },
    {
      "icon": {
        "paths": [
          "M551.385 29.538c-266.431 0-482.462 216.031-482.462 482.462s216.031 482.462 482.462 482.462c266.429 0 482.462-216.031 482.462-482.462s-216.032-482.462-482.462-482.462zM759.769 354.446l-226.8 314.462c-3.17 4.424-7.348 8.030-12.19 10.516s-10.205 3.784-15.648 3.784c-5.442 0-10.807-1.297-15.648-3.784s-9.020-6.092-12.19-10.516l-134.293-186.092c-4.092-5.708 0-13.677 7-13.677h50.508c10.984 0 21.431 5.277 27.892 14.323l76.677 106.4 169.292-234.769c6.461-8.939 16.8-14.323 27.892-14.323h50.508c7 0 11.092 7.969 7 13.677z"
        ],
        "attrs": [],
        "width": 1103,
        "isMulticolor": false,
        "isMulticolor2": false,
        "grid": 0,
        "tags": ["check-circle-filled"],
        "colorPermutations": { "1311381441168168168181822511": [] }
      },
      "attrs": [],
      "properties": {
        "order": 42,
        "id": 36,
        "name": "check-circle-filled",
        "prevSize": 32,
        "code": 59648
      },
      "setIdx": 0,
      "setId": 1,
      "iconIdx": 11
    },
    {
      "icon": {
        "paths": [
          "M199.115 135.111c-15.088 0-29.558 5.993-40.227 16.662s-16.663 25.139-16.663 40.227v625.779c0 15.087 5.994 29.555 16.663 40.226 10.669 10.667 25.139 16.661 40.227 16.661h796.444c15.087 0 29.559-5.995 40.226-16.661 10.671-10.671 16.661-25.139 16.661-40.226v-455.113c0-15.088-5.99-29.558-16.661-40.227-10.667-10.669-25.139-16.662-40.226-16.662h-398.221c-15.087 0-29.559-5.994-40.226-16.663l-154.005-154.004h-203.991zM78.435 71.32c32.006-32.006 75.416-49.987 120.68-49.987h227.556c15.087 0 29.555 5.994 40.226 16.662l154.005 154.004h374.656c45.265 0 88.674 17.981 120.678 49.987 32.009 32.006 49.988 75.416 49.988 120.68v455.113c0 45.261-17.98 88.67-49.988 120.678-32.004 32.004-75.413 49.988-120.678 49.988h-796.444c-45.264 0-88.673-17.984-120.68-49.988-32.006-32.009-49.987-75.418-49.987-120.678v-625.779c0-45.264 17.981-88.673 49.987-120.68z"
        ],
        "width": 1195,
        "isMulticolor": false,
        "isMulticolor2": false,
        "tags": ["folder"],
        "defaultCode": 59648,
        "grid": 0,
        "attrs": [],
        "colorPermutations": { "1311381441168168168181822511": [] }
      },
      "attrs": [],
      "properties": {
        "id": 1,
        "order": 43,
        "ligatures": "",
        "prevSize": 32,
        "code": 59649,
        "name": "folder"
      },
      "setIdx": 0,
      "setId": 1,
      "iconIdx": 12
    },
    {
      "icon": {
        "paths": [
          "M153.009 100.023c-12.486 0-24.462 4.96-33.291 13.79s-13.789 20.804-13.789 33.291v659.127c0 12.486 4.96 24.459 13.789 33.291 8.829 8.828 20.805 13.789 33.291 13.789h235.402c26.003 0 47.083 21.080 47.083 47.079 0 26.003-21.080 47.083-47.083 47.083h-235.402c-37.459 0-73.385-14.88-99.873-41.37-26.488-26.486-41.368-62.411-41.368-99.872v-659.127c0-37.46 14.881-73.385 41.368-99.873s62.414-41.369 99.873-41.369h329.564c12.486 0 24.459 4.96 33.291 13.79l235.403 235.402c8.828 8.829 13.789 20.804 13.789 33.291v211.861c0 26.003-21.080 47.079-47.079 47.079-26.003 0-47.083-21.077-47.083-47.079v-164.781h-141.241c-24.971 0-48.922-9.92-66.581-27.579s-27.577-41.609-27.577-66.582v-141.241h-282.485zM529.652 166.605l74.66 74.659h-74.66v-74.659zM600.272 664.989c-39.004 0-70.621 31.617-70.621 70.621s31.617 70.621 70.621 70.621c39.004 0 70.621-31.617 70.621-70.621s-31.617-70.621-70.621-70.621zM435.493 735.61c0-91.005 73.774-164.783 164.779-164.783s164.783 73.777 164.783 164.783c0 28.379-7.175 55.081-19.806 78.392l100.175 100.179c18.386 18.386 18.386 48.195 0 66.581s-48.195 18.386-66.581 0l-100.179-100.179c-23.312 12.634-50.014 19.806-78.392 19.806-91.005 0-164.779-73.774-164.779-164.779z"
        ],
        "width": 883,
        "isMulticolor": false,
        "isMulticolor2": false,
        "tags": ["file-search"],
        "defaultCode": 59649,
        "grid": 0,
        "attrs": [],
        "colorPermutations": { "1311381441168168168181822511": [] }
      },
      "attrs": [],
      "properties": {
        "id": 2,
        "order": 44,
        "ligatures": "",
        "prevSize": 32,
        "code": 59650,
        "name": "file-search"
      },
      "setIdx": 0,
      "setId": 1,
      "iconIdx": 13
    },
    {
      "icon": {
        "paths": [
          "M146.286 97.524c-12.932 0-25.335 5.138-34.48 14.283s-14.283 21.547-14.283 34.48v682.664c0 12.932 5.138 25.337 14.283 34.48 9.144 9.15 21.547 14.285 34.48 14.285h219.429c26.93 0 48.762 21.833 48.762 48.764s-21.832 48.757-48.762 48.757h-219.429c-38.797 0-76.006-15.411-103.44-42.847-27.434-27.429-42.846-64.636-42.846-103.439v-682.664c0-38.797 15.412-76.006 42.846-103.44s64.642-42.846 103.44-42.846h341.334c12.932 0 25.335 5.137 34.48 14.282l243.809 243.81c9.143 9.144 14.285 21.547 14.285 34.48v243.809c0 26.93-21.833 48.762-48.764 48.762s-48.762-21.832-48.762-48.762v-195.047h-146.286c-25.865 0-50.67-10.275-68.96-28.564s-28.564-43.094-28.564-68.96v-146.286h-292.571zM536.381 166.483l77.326 77.326h-77.326v-77.326zM648.187 717.147c-19.043-19.043-19.043-49.917 0-68.96s49.917-19.043 68.96 0l146.283 146.284c19.046 19.046 19.046 49.92 0 68.959l-146.283 146.286c-19.043 19.046-49.917 19.046-68.96 0-19.043-19.039-19.043-49.913 0-68.959l63.044-63.042h-223.612c-26.93 0-48.762-21.833-48.762-48.764s21.832-48.757 48.762-48.757h223.612l-63.044-63.046z"
        ],
        "width": 878,
        "isMulticolor": false,
        "isMulticolor2": false,
        "tags": ["file-export"],
        "defaultCode": 59650,
        "grid": 0,
        "attrs": [],
        "colorPermutations": { "1311381441168168168181822511": [] }
      },
      "attrs": [],
      "properties": {
        "id": 3,
        "order": 45,
        "ligatures": "",
        "prevSize": 32,
        "code": 59651,
        "name": "file-export"
      },
      "setIdx": 0,
      "setId": 1,
      "iconIdx": 14
    },
    {
      "icon": {
        "paths": [
          "M858.401 123.858c-23.907-22.023-120.657-92.235-336.377-93.176 0 0-254.306-15.247-378.164 98.447-68.894 68.894-93.177 169.977-95.812 295.153s-5.835 359.717 220.235 423.343h0.189l-0.189 97.129c0 0-1.506 39.34 24.471 47.243 31.247 9.788 49.694-20.137 79.624-52.326 16.376-17.697 38.964-43.671 56.094-63.434 154.729 12.987 273.505-16.757 287.058-21.082 31.25-10.168 207.998-32.756 236.61-267.296 29.744-242.071-14.306-394.918-93.738-464zM884.567 570.164c-24.287 195.764-167.532 208.19-193.885 216.659-11.294 3.578-115.764 29.551-246.964 21.082 0 0-97.882 118.025-128.376 148.703-9.976 9.981-20.894 9.035-20.706-10.728 0-12.987 0.753-161.316 0.753-161.316-0.188 0-0.188 0 0 0-191.624-53.085-180.329-252.8-178.259-357.271s21.835-190.118 80.188-247.718c104.847-95.059 320.753-80.941 320.753-80.941 182.399 0.753 269.74 55.718 290.070 74.165 67.198 57.6 101.46 195.388 76.427 397.365zM622.917 418.070c0.753 16.188-23.529 17.318-24.281 1.129-2.071-41.412-21.459-61.553-61.365-63.812-16.188-0.941-14.682-25.224 1.317-24.282 52.518 2.823 81.697 32.941 84.329 86.965zM661.131 439.341c1.879-79.812-48.002-142.306-142.683-149.27-16-1.129-14.306-25.412 1.694-24.283 109.179 7.906 167.342 83.012 165.27 174.118-0.187 16.188-24.66 15.435-24.281-0.565zM749.598 464.564c0.193 16.188-24.281 16.377-24.281 0.189-1.126-153.412-103.34-236.989-227.388-237.929-16-0.189-16-24.283 0-24.283 138.727 0.941 250.355 96.753 251.668 262.024zM728.329 649.222v0.379c-20.329 35.762-58.35 75.294-97.503 62.681l-0.379-0.566c-39.717-11.107-133.27-59.296-192.376-106.351-30.494-24.095-58.353-52.518-79.812-79.812-19.388-24.282-38.964-53.082-57.976-87.718-40.094-72.47-48.941-104.847-48.941-104.847-12.611-39.153 26.729-77.176 62.683-97.506h0.376c17.318-9.035 33.882-6.024 44.988 7.341 0 0 23.341 27.859 33.318 41.6 9.412 12.8 22.023 33.317 28.612 44.8 11.482 20.517 4.329 41.412-6.965 50.071l-22.588 18.071c-11.482 9.223-9.976 26.353-9.976 26.353s33.506 126.682 158.682 158.682c0 0 17.13 1.506 26.353-9.976l18.071-22.588c8.659-11.294 29.554-18.447 50.070-6.965 27.672 15.624 62.874 39.906 86.215 61.929 13.173 10.728 16.185 27.106 7.15 44.424z"
        ],
        "width": 964,
        "isMulticolor": false,
        "isMulticolor2": false,
        "tags": ["viber"],
        "defaultCode": 59651,
        "grid": 0,
        "attrs": [],
        "colorPermutations": { "1311381441168168168181822511": [] }
      },
      "attrs": [],
      "properties": {
        "id": 4,
        "order": 46,
        "ligatures": "",
        "prevSize": 32,
        "code": 59652,
        "name": "viber"
      },
      "setIdx": 0,
      "setId": 1,
      "iconIdx": 15
    },
    {
      "icon": {
        "paths": [
          "M722.848 235.033c-67.462-57.544-153.609-88.489-242.27-87.028s-173.741 35.228-239.274 94.964c-65.533 59.735-107.013 141.333-116.657 229.48s13.213 176.783 64.281 249.273c9.141 12.977 10.861 29.778 4.539 44.339l-41.305 95.123 146.312-26.071c9.514-1.7 19.319-0.321 27.998 3.932 79.639 38.987 170.772 47.582 256.294 24.153s159.558-77.257 208.205-151.395c48.654-74.134 68.574-163.475 56.033-251.257s-56.689-167.969-124.157-225.513zM479.078 56.995c110.826-1.826 218.511 36.855 302.841 108.786s139.517 172.164 155.191 281.89c15.681 109.727-9.223 221.404-70.035 314.076-60.819 92.665-153.361 159.956-260.262 189.242-102.001 27.935-210.387 19.442-306.586-23.736l-215.614 38.427c-16.508 2.942-33.296-3.427-43.693-16.589-10.396-13.155-12.716-30.959-6.038-46.339l65.261-150.303c-53.695-86.302-77.087-188.36-65.979-289.898 12.054-110.184 63.905-212.182 145.82-286.851s188.266-116.878 299.093-118.704zM324.179 326.471c12.803-12.802 30.166-19.995 48.272-19.995s35.469 7.193 48.271 19.995c12.803 12.803 19.995 30.167 19.995 48.272v45.511c0 18.105-7.193 35.469-19.995 48.272-4.603 4.603-9.797 8.481-15.402 11.561 8.94 25.687 23.608 49.294 43.206 68.892s43.204 34.266 68.892 43.206c3.079-5.606 6.957-10.799 11.561-15.403 12.803-12.803 30.166-19.995 48.272-19.995h45.511c18.106 0 35.469 7.192 48.272 19.995 12.801 12.803 19.996 30.166 19.996 48.272s-7.195 35.469-19.996 48.271c-12.803 12.802-30.166 19.997-48.272 19.997h-45.511c-72.422 0-141.877-28.772-193.087-79.982s-79.979-120.665-79.979-193.087v-45.511c0-18.105 7.192-35.469 19.995-48.272z"
        ],
        "width": 956,
        "isMulticolor": false,
        "isMulticolor2": false,
        "tags": ["whatsapp"],
        "defaultCode": 59652,
        "grid": 0,
        "attrs": [],
        "colorPermutations": { "1311381441168168168181822511": [] }
      },
      "attrs": [],
      "properties": {
        "id": 5,
        "order": 47,
        "ligatures": "",
        "prevSize": 32,
        "code": 59653,
        "name": "whatsapp"
      },
      "setIdx": 0,
      "setId": 1,
      "iconIdx": 16
    },
    {
      "icon": {
        "paths": [
          "M200.202 118.103c-13.928 0-27.284 5.533-37.133 15.38-9.53 9.53-15.019 22.347-15.363 35.786 12.078 191.353 93.539 371.757 229.145 507.363 135.606 135.604 316.010 217.068 507.364 229.143 13.438-0.339 26.254-5.829 35.785-15.36 9.846-9.846 15.384-23.205 15.384-37.132v-174.5l-188.034-75.212-55.76 92.934c-14.061 23.435-43.746 32.167-68.257 20.079-124.4-61.352-225.082-162.034-286.434-286.434-12.088-24.511-3.356-54.196 20.079-68.257l92.934-55.76-75.212-188.031h-174.498zM88.805 59.219c29.545-29.544 69.615-46.142 111.397-46.142h210.051c21.473 0 40.782 13.073 48.757 33.010l105.025 262.564c9.572 23.931 0.362 51.272-21.74 64.532l-87.906 52.744c43.264 70.558 102.61 129.903 173.167 173.167l52.744-87.906c13.261-22.102 40.602-31.312 64.532-21.74l262.562 105.025c19.936 7.975 33.012 27.284 33.012 48.757v210.052c0 41.779-16.597 81.849-46.143 111.395s-69.616 46.143-111.395 46.143c-1.063 0-2.127-0.032-3.182-0.095-217.645-13.233-422.92-105.653-577.1-259.831-154.179-154.18-246.601-359.455-259.827-577.096-0.065-1.060-0.097-2.123-0.097-3.185 0-41.782 16.598-81.853 46.142-111.397z"
        ],
        "width": 1103,
        "isMulticolor": false,
        "isMulticolor2": false,
        "tags": ["phone"],
        "defaultCode": 59653,
        "grid": 0,
        "attrs": [],
        "colorPermutations": { "1311381441168168168181822511": [] }
      },
      "attrs": [],
      "properties": {
        "id": 6,
        "order": 48,
        "ligatures": "",
        "prevSize": 32,
        "code": 59654,
        "name": "phone"
      },
      "setIdx": 0,
      "setId": 1,
      "iconIdx": 17
    },
    {
      "icon": {
        "paths": [
          "M220.293 173.060l489.529 326.353 489.524-326.353c-10.333-19.894-31.13-33.484-55.101-33.484h-868.848c-23.97 0-44.766 13.589-55.104 33.484zM1206.309 317.597l-462.062 308.041c-20.846 13.897-48.004 13.897-68.85 0l-462.060-308.041v504.645c0 34.275 27.785 62.061 62.060 62.061h868.848c34.276 0 62.064-27.786 62.064-62.061v-504.645zM89.216 201.637c0-102.825 83.356-186.182 186.181-186.182h868.848c102.828 0 186.182 83.357 186.182 186.182v620.605c0 102.825-83.354 186.184-186.182 186.184h-868.848c-102.825 0-186.181-83.358-186.181-186.184v-620.605z"
        ],
        "width": 1396,
        "isMulticolor": false,
        "isMulticolor2": false,
        "tags": ["email"],
        "defaultCode": 59654,
        "grid": 0,
        "attrs": [],
        "colorPermutations": { "1311381441168168168181822511": [] }
      },
      "attrs": [],
      "properties": {
        "id": 7,
        "order": 49,
        "ligatures": "",
        "prevSize": 32,
        "code": 59655,
        "name": "email"
      },
      "setIdx": 0,
      "setId": 1,
      "iconIdx": 18
    },
    {
      "icon": {
        "paths": [
          "M225.841 225.809c16.662-16.662 43.677-16.662 60.34 0l225.83 225.83 225.833-225.83c16.659-16.662 43.674-16.662 60.339 0 16.659 16.662 16.659 43.677 0 60.34l-225.832 225.83 225.832 225.832c16.659 16.659 16.659 43.674 0 60.339-16.666 16.659-43.68 16.659-60.339 0l-225.833-225.832-225.83 225.832c-16.662 16.659-43.677 16.659-60.34 0-16.662-16.666-16.662-43.68 0-60.339l225.83-225.832-225.83-225.83c-16.662-16.662-16.662-43.677 0-60.34z"
        ],
        "isMulticolor": false,
        "isMulticolor2": false,
        "tags": ["times"],
        "defaultCode": 59655,
        "grid": 0,
        "attrs": [],
        "colorPermutations": { "1311381441168168168181822511": [] }
      },
      "attrs": [],
      "properties": {
        "id": 8,
        "order": 50,
        "ligatures": "",
        "prevSize": 32,
        "code": 59656,
        "name": "times"
      },
      "setIdx": 0,
      "setId": 1,
      "iconIdx": 19
    },
    {
      "icon": {
        "paths": [
          "M341.292 85.333c23.564 0 42.667 19.103 42.667 42.667v42.667h255.999v-42.667c0-23.564 19.102-42.667 42.667-42.667s42.667 19.103 42.667 42.667v42.667h42.667c70.694 0 128 57.308 128 128v512c0 70.694-57.306 128-128 128h-511.999c-70.692 0-128-57.306-128-128v-512c0-70.692 57.308-128 128-128h42.667v-42.667c0-23.564 19.103-42.667 42.667-42.667zM298.625 256h-42.667c-23.564 0-42.667 19.103-42.667 42.667v128h597.332v-128c0-23.564-19.102-42.667-42.667-42.667h-42.667v42.667c0 23.564-19.102 42.667-42.667 42.667s-42.667-19.103-42.667-42.667v-42.667h-255.999v42.667c0 23.564-19.102 42.667-42.667 42.667s-42.667-19.103-42.667-42.667v-42.667zM810.624 512h-597.332v298.667c0 23.565 19.103 42.667 42.667 42.667h511.999c23.565 0 42.667-19.102 42.667-42.667v-298.667zM426.625 640c0-23.565 19.101-42.667 42.666-42.667h42.667c23.565 0 42.667 19.102 42.667 42.667v128c0 23.565-19.102 42.667-42.667 42.667s-42.667-19.102-42.667-42.667v-85.333c-23.565 0-42.666-19.102-42.666-42.667z"
        ],
        "isMulticolor": false,
        "isMulticolor2": false,
        "tags": ["calendar"],
        "defaultCode": 59656,
        "grid": 0,
        "attrs": [],
        "colorPermutations": { "1311381441168168168181822511": [] }
      },
      "attrs": [],
      "properties": {
        "id": 9,
        "order": 51,
        "ligatures": "",
        "prevSize": 32,
        "code": 59657,
        "name": "calendar"
      },
      "setIdx": 0,
      "setId": 1,
      "iconIdx": 20
    },
    {
      "icon": {
        "paths": [
          "M483.846 196.923c-174.012 0-315.077 141.065-315.077 315.077s141.065 315.077 315.077 315.077c174.012 0 315.078-141.065 315.078-315.077s-141.066-315.077-315.078-315.077zM90 512c0-217.515 176.33-393.846 393.846-393.846s393.848 176.331 393.848 393.846c0 217.515-176.333 393.846-393.848 393.846s-393.846-176.331-393.846-393.846zM326.308 472.615c21.751 0 39.385 17.633 39.385 39.385v0.394c0 21.751-17.633 39.385-39.385 39.385s-39.385-17.633-39.385-39.385v-0.394c0-21.751 17.633-39.385 39.385-39.385zM483.846 472.615c21.751 0 39.385 17.633 39.385 39.385v0.394c0 21.751-17.633 39.385-39.385 39.385s-39.385-17.633-39.385-39.385v-0.394c0-21.751 17.633-39.385 39.385-39.385zM641.385 472.615c21.751 0 39.385 17.633 39.385 39.385v0.394c0 21.751-17.633 39.385-39.385 39.385s-39.385-17.633-39.385-39.385v-0.394c0-21.751 17.633-39.385 39.385-39.385z"
        ],
        "isMulticolor": false,
        "isMulticolor2": false,
        "tags": ["pending-circle-outline"],
        "defaultCode": 59657,
        "grid": 0,
        "attrs": [],
        "colorPermutations": { "1311381441168168168181822511": [] }
      },
      "attrs": [],
      "properties": {
        "id": 10,
        "order": 52,
        "ligatures": "",
        "prevSize": 32,
        "code": 59658,
        "name": "pending-circle-outline"
      },
      "setIdx": 0,
      "setId": 1,
      "iconIdx": 21
    },
    {
      "icon": {
        "paths": [
          "M495.154 196.923c-174.012 0-315.077 141.065-315.077 315.077s141.065 315.077 315.077 315.077c174.012 0 315.075-141.065 315.075-315.077s-141.062-315.077-315.075-315.077zM101.307 512c0-217.515 176.331-393.846 393.846-393.846s393.844 176.331 393.844 393.846c0 217.515-176.328 393.846-393.844 393.846s-393.846-176.331-393.846-393.846zM641.157 405.382c15.38 15.38 15.38 40.317 0 55.698l-157.538 157.538c-15.381 15.381-40.318 15.381-55.699 0l-78.769-78.769c-15.38-15.38-15.38-40.317 0-55.698s40.317-15.381 55.699 0l50.92 50.92 129.69-129.689c15.38-15.381 40.317-15.381 55.699 0z"
        ],
        "isMulticolor": false,
        "isMulticolor2": false,
        "tags": ["check-circle-outline"],
        "defaultCode": 59658,
        "grid": 0,
        "attrs": [],
        "colorPermutations": { "1311381441168168168181822511": [] }
      },
      "attrs": [],
      "properties": {
        "id": 11,
        "order": 53,
        "ligatures": "",
        "prevSize": 32,
        "code": 59659,
        "name": "check-circle-outline"
      },
      "setIdx": 0,
      "setId": 1,
      "iconIdx": 22
    },
    {
      "icon": {
        "paths": [
          "M512 0c282.77 0 512 229.23 512 512s-229.23 512-512 512c-282.77 0-512-229.23-512-512s229.23-512 512-512z"
        ],
        "isMulticolor": false,
        "isMulticolor2": false,
        "tags": ["bullet"],
        "defaultCode": 59659,
        "grid": 0,
        "attrs": [],
        "colorPermutations": { "1311381441168168168181822511": [] }
      },
      "attrs": [],
      "properties": {
        "id": 12,
        "order": 54,
        "ligatures": "",
        "prevSize": 32,
        "code": 59660,
        "name": "bullet"
      },
      "setIdx": 0,
      "setId": 1,
      "iconIdx": 23
    },
    {
      "icon": {
        "paths": [
          "M512.010 170.646c-188.513 0-341.333 152.82-341.333 341.333s152.82 341.333 341.333 341.333c188.515 0 341.334-152.819 341.334-341.333 0-188.513-152.819-341.333-341.334-341.333zM85.344 511.979c0-235.641 191.025-426.666 426.666-426.666 235.644 0 426.665 191.025 426.665 426.666 0 235.644-191.021 426.664-426.665 426.664-235.642 0-426.666-191.021-426.666-426.664zM512.010 341.313c23.564 0 42.667 19.102 42.667 42.666v85.334h85.336c23.565 0 42.662 19.102 42.662 42.666s-19.098 42.667-42.662 42.667h-85.336v85.333c0 23.567-19.103 42.664-42.667 42.664s-42.666-19.098-42.666-42.664v-85.333h-85.334c-23.564 0-42.666-19.103-42.666-42.667s19.102-42.666 42.666-42.666h85.334v-85.334c0-23.564 19.102-42.666 42.666-42.666z"
        ],
        "isMulticolor": false,
        "isMulticolor2": false,
        "tags": ["plus-circle-outline"],
        "defaultCode": 59660,
        "grid": 0,
        "attrs": [],
        "colorPermutations": { "1311381441168168168181822511": [] }
      },
      "attrs": [],
      "properties": {
        "id": 13,
        "order": 55,
        "ligatures": "",
        "prevSize": 32,
        "code": 59661,
        "name": "plus-circle-outline"
      },
      "setIdx": 0,
      "setId": 1,
      "iconIdx": 24
    },
    {
      "icon": {
        "paths": [
          "M390.4 64c0-14.138 11.462-25.6 25.6-25.6h192c14.136 0 25.6 11.462 25.6 25.6v112.178l33.347 16.673 82.949-82.953c9.999-9.998 26.209-9.998 36.209 0l128 128c9.994 9.997 9.994 26.206 0 36.204l-82.954 82.953 16.671 33.345h112.179c14.136 0 25.6 11.462 25.6 25.6v192c0 14.136-11.464 25.6-25.6 25.6h-112.179l-16.671 33.347 82.954 82.949c9.994 9.999 9.994 26.209 0 36.209l-128 128c-9.999 9.994-26.209 9.994-36.209 0l-82.949-82.954-33.347 16.671v112.179c0 14.136-11.464 25.6-25.6 25.6h-192c-14.138 0-25.6-11.464-25.6-25.6v-112.179l-33.345-16.671-82.953 82.954c-9.997 9.994-26.206 9.994-36.204 0l-128-128c-9.998-9.999-9.998-26.209 0-36.209l82.953-82.949-16.673-33.347h-112.178c-14.138 0-25.6-11.464-25.6-25.6v-192c0-14.138 11.462-25.6 25.6-25.6h112.178l16.673-33.345-82.953-82.953c-9.998-9.997-9.998-26.206 0-36.204l128-128c9.997-9.998 26.206-9.998 36.204 0l82.953 82.953 33.345-16.673v-112.178zM441.6 89.6v102.4c0 9.697-5.478 18.561-14.151 22.897l-64 32c-9.856 4.928-21.759 2.996-29.551-4.795l-77.898-77.898-91.796 91.796 77.898 77.898c7.792 7.792 9.723 19.695 4.795 29.551l-32 64c-4.336 8.673-13.2 14.151-22.897 14.151h-102.4v140.8h102.4c9.697 0 18.561 5.478 22.897 14.152l32 64c4.928 9.856 2.996 21.76-4.795 29.553l-77.898 77.896 91.796 91.796 77.898-77.901c7.792-7.788 19.695-9.723 29.551-4.792l64 32c8.673 4.337 14.151 13.199 14.151 22.897v102.4h140.8v-102.4c0-9.697 5.478-18.56 14.152-22.897l64-32c9.856-4.931 21.76-2.995 29.553 4.792l77.896 77.901 91.796-91.796-77.901-77.896c-7.788-7.793-9.723-19.697-4.792-29.553l32-64c4.337-8.673 13.199-14.152 22.897-14.152h102.4v-140.8h-102.4c-9.697 0-18.56-5.478-22.897-14.151l-32-64c-4.931-9.856-2.995-21.759 4.792-29.551l77.901-77.898-91.796-91.796-77.896 77.898c-7.793 7.792-19.697 9.723-29.553 4.795l-64-32c-8.673-4.336-14.152-13.2-14.152-22.897v-102.4h-140.8zM512 409.6c-56.554 0-102.4 45.846-102.4 102.4 0 56.556 45.846 102.4 102.4 102.4 56.556 0 102.4-45.844 102.4-102.4 0-56.554-45.844-102.4-102.4-102.4zM358.4 512c0-84.831 68.769-153.6 153.6-153.6 84.833 0 153.6 68.769 153.6 153.6 0 84.833-68.767 153.6-153.6 153.6-84.831 0-153.6-68.767-153.6-153.6z"
        ],
        "isMulticolor": false,
        "isMulticolor2": false,
        "tags": ["settings"],
        "defaultCode": 59661,
        "grid": 0,
        "attrs": [],
        "colorPermutations": { "1311381441168168168181822511": [] }
      },
      "attrs": [],
      "properties": {
        "id": 14,
        "order": 56,
        "ligatures": "",
        "prevSize": 32,
        "code": 59662,
        "name": "settings"
      },
      "setIdx": 0,
      "setId": 1,
      "iconIdx": 25
    },
    {
      "icon": {
        "paths": [
          "M353.809 798.157c-16.662-16.659-16.662-43.674 0-60.339l225.83-225.828-225.83-225.83c-16.662-16.662-16.662-43.677 0-60.34s43.677-16.662 60.34 0l256.001 256c16.659 16.662 16.659 43.677 0 60.34l-256.001 255.997c-16.662 16.666-43.677 16.666-60.34 0z"
        ],
        "isMulticolor": false,
        "isMulticolor2": false,
        "tags": ["chevron-right"],
        "defaultCode": 59662,
        "grid": 0,
        "attrs": [],
        "colorPermutations": { "1311381441168168168181822511": [] }
      },
      "attrs": [],
      "properties": {
        "id": 15,
        "order": 57,
        "ligatures": "",
        "prevSize": 32,
        "code": 59663,
        "name": "chevron-right"
      },
      "setIdx": 0,
      "setId": 1,
      "iconIdx": 26
    },
    {
      "icon": {
        "paths": [
          "M798.189 670.157c-16.659 16.666-43.674 16.666-60.339 0l-225.828-225.827-225.83 225.827c-16.662 16.666-43.677 16.666-60.34 0-16.662-16.659-16.662-43.675 0-60.337l256-256c16.662-16.662 43.677-16.662 60.34 0l255.998 256c16.666 16.662 16.666 43.678 0 60.337z"
        ],
        "isMulticolor": false,
        "isMulticolor2": false,
        "tags": ["chevron-up"],
        "defaultCode": 59663,
        "grid": 0,
        "attrs": [],
        "colorPermutations": { "1311381441168168168181822511": [] }
      },
      "attrs": [],
      "properties": {
        "id": 16,
        "order": 58,
        "ligatures": "",
        "prevSize": 32,
        "code": 59664,
        "name": "chevron-up"
      },
      "setIdx": 0,
      "setId": 1,
      "iconIdx": 27
    },
    {
      "icon": {
        "paths": [
          "M670.189 225.841c16.666 16.662 16.666 43.677 0 60.34l-225.828 225.83 225.828 225.833c16.666 16.659 16.666 43.674 0 60.339-16.659 16.659-43.676 16.659-60.338 0l-256-256.002c-16.662-16.662-16.662-43.677 0-60.34l256-256c16.662-16.662 43.679-16.662 60.338 0z"
        ],
        "isMulticolor": false,
        "isMulticolor2": false,
        "tags": ["chevron-left"],
        "defaultCode": 59664,
        "grid": 0,
        "attrs": [],
        "colorPermutations": { "1311381441168168168181822511": [] }
      },
      "attrs": [],
      "properties": {
        "id": 17,
        "order": 59,
        "ligatures": "",
        "prevSize": 32,
        "code": 59665,
        "name": "chevron-left"
      },
      "setIdx": 0,
      "setId": 1,
      "iconIdx": 28
    },
    {
      "icon": {
        "paths": [
          "M225.809 353.841c16.662-16.662 43.677-16.662 60.34 0l225.83 225.83 225.832-225.83c16.659-16.662 43.674-16.662 60.339 0 16.659 16.662 16.659 43.677 0 60.34l-256.001 256.002c-16.662 16.659-43.677 16.659-60.34 0l-256-256.002c-16.662-16.662-16.662-43.677 0-60.34z"
        ],
        "isMulticolor": false,
        "isMulticolor2": false,
        "tags": ["chevron-down"],
        "defaultCode": 59665,
        "grid": 0,
        "attrs": [],
        "colorPermutations": { "1311381441168168168181822511": [] }
      },
      "attrs": [],
      "properties": {
        "id": 18,
        "order": 60,
        "ligatures": "",
        "prevSize": 32,
        "code": 59666,
        "name": "chevron-down"
      },
      "setIdx": 0,
      "setId": 1,
      "iconIdx": 29
    },
    {
      "icon": {
        "paths": [
          "M475.694 29.806c54.265-4.055 108.827 1.090 161.376 15.223 45.778 12.224 89.509 31.111 129.799 56.055 176.475 109.401 268.64 325.136 212.105 536.105-4.062 15.173-19.662 24.178-34.832 20.11l-659.346-176.647c-0.187-0.050-0.375-0.103-0.56-0.158l0.56 0.158 7.36-27.392v28.359c14.274 0 26.361-10.581 28.224-24.731 1.838-13.959-6.811-27.131-20.281-31.031l630.389 168.894c-1.838 9.239-3.989 18.482-6.464 27.717l27.477 7.36 7.36-27.477-28.375-7.6c35.152-177.010-45.557-353.543-193.582-445.307-35.55-22.009-74.137-38.672-114.528-49.456-46.363-12.471-94.551-17.029-142.425-13.451-166.715 12.555-315.826 123.065-371.806 287.886l-28.373-7.602 5.561 31.403 14.553 3.429c2.471-9.232 5.23-18.311 8.258-27.232l191.394 51.28c0.187 0.050 0.375 0.103 0.56 0.155l-0.56-0.155-7.362 27.392v-28.359c-14.274 0-26.361 10.581-28.224 24.731-1.838 13.959 6.811 27.129 20.279 31.031l-219.184-58.727c-15.173-4.064-24.178-19.659-20.114-34.832 54.601-203.89 231.68-342.146 430.761-357.131zM639.808 99.097c-0.016 0.007-0.027 0.011-0.046 0.016l-10.048-26.61c10.048 26.61 10.057 26.606 10.069 26.601l-0.023 0.007-0.352 0.139c-0.363 0.142-0.955 0.379-1.776 0.718-1.632 0.674-4.146 1.742-7.424 3.225-6.56 2.967-16.155 7.586-27.847 14.016-23.426 12.882-55.017 32.91-87.419 61.319-64.67 56.704-131.982 146.183-145.303 279.415-1.563 15.632-15.502 27.035-31.134 25.472s-27.035-15.502-25.472-31.134c15.12-151.211 91.998-253.038 164.405-316.528 36.137-31.687 71.305-53.979 97.511-68.391 13.12-7.216 24.053-12.489 31.817-16.002 3.886-1.758 6.981-3.077 9.17-3.979 1.093-0.453 1.963-0.8 2.587-1.047l0.757-0.295 0.325-0.123 0.027-0.014c0.016-0.005 0.027-0.009 10.080 26.599l-10.053-26.61c14.695-5.55 31.113 1.865 36.658 16.56 5.547 14.681-1.849 31.077-16.514 36.642zM620.208 101.6c0.007 0.009 0.016 0.016 0.023 0.025l22.562-17.321c-22.562 17.321-22.574 17.312-22.578 17.303l0.187 0.247 0.983 1.353c0.91 1.271 2.315 3.271 4.112 5.968 3.595 5.394 8.743 13.554 14.649 24.199 11.826 21.319 26.574 52.405 37.968 91.047 22.72 77.047 32.137 183.929-21.44 304.471-6.377 14.354 0.085 31.166 14.443 37.545 14.352 6.377 31.163-0.085 37.547-14.441 60.201-135.456 49.68-256.645 24.014-343.669-12.793-43.394-29.355-78.343-42.779-102.551-6.725-12.121-12.693-21.595-17.056-28.146-2.178-3.275-3.966-5.824-5.25-7.611-0.638-0.894-1.154-1.595-1.529-2.103l-0.462-0.617-0.153-0.197-0.050-0.071-0.023-0.027c-0.011-0.011-0.016-0.025-22.578 17.298zM44.935 386.93c4.066-15.175 19.664-24.178 34.837-20.114l879.090 235.534c15.173 4.069 24.178 19.662 20.11 34.839-4.062 15.173-19.662 24.178-34.832 20.11l-879.090-235.531c-15.175-4.066-24.181-19.664-20.114-34.837zM28.443 967.111c0-15.707 12.736-28.443 28.443-28.443h910.103c15.707 0 28.443 12.736 28.443 28.443s-12.736 28.443-28.443 28.443h-910.103c-15.71 0-28.443-12.736-28.443-28.443zM519.481 484.635c15.147 4.165 24.050 19.822 19.883 34.967l-125.138 455.051c-4.165 15.145-19.822 24.048-34.969 19.883s-24.050-19.819-19.883-34.969l125.138-455.049c4.165-15.147 19.822-24.048 34.967-19.883z"
        ],
        "isMulticolor": false,
        "isMulticolor2": false,
        "tags": ["holidays"],
        "defaultCode": 59666,
        "grid": 0,
        "attrs": [],
        "colorPermutations": { "1311381441168168168181822511": [] }
      },
      "attrs": [],
      "properties": {
        "id": 19,
        "order": 61,
        "ligatures": "",
        "prevSize": 32,
        "code": 59667,
        "name": "holidays"
      },
      "setIdx": 0,
      "setId": 1,
      "iconIdx": 30
    },
    {
      "icon": {
        "paths": [
          "M512 170.677c-188.512 0-341.333 152.821-341.333 341.333s152.821 341.335 341.333 341.335 341.333-152.818 341.333-341.335c0-188.512-152.818-341.333-341.333-341.333zM85.333 512.009c0-235.641 191.024-426.665 426.667-426.665s426.663 191.024 426.663 426.665c0 235.643-191.022 426.665-426.663 426.665s-426.667-191.022-426.667-426.665zM469.333 341.344c0-23.563 19.104-42.667 42.667-42.667h0.427c23.563 0 42.665 19.104 42.665 42.667s-19.102 42.665-42.665 42.665h-0.427c-23.563 0-42.667-19.102-42.667-42.665zM426.665 512.009c0-23.563 19.102-42.665 42.665-42.665h42.667c23.563 0 42.667 19.102 42.667 42.665v128.002c23.563 0 42.665 19.097 42.665 42.663s-19.102 42.67-42.665 42.67h-42.667c-23.563 0-42.667-19.104-42.667-42.67v-127.998c-23.563 0-42.665-19.104-42.665-42.667z"
        ],
        "isMulticolor": false,
        "isMulticolor2": false,
        "tags": ["info-circle-outline"],
        "defaultCode": 59667,
        "grid": 0,
        "attrs": [],
        "colorPermutations": { "1311381441168168168181822511": [] }
      },
      "attrs": [],
      "properties": {
        "id": 20,
        "order": 62,
        "ligatures": "",
        "prevSize": 32,
        "code": 59668,
        "name": "info-circle-outline"
      },
      "setIdx": 0,
      "setId": 1,
      "iconIdx": 31
    },
    {
      "icon": {
        "paths": [
          "M371.81 170.677c-0.096 0.094-0.199 0.194-0.309 0.304l-200.533 200.533c-0.11 0.11-0.21 0.213-0.304 0.309v280.377c0.094 0.096 0.194 0.199 0.304 0.306l200.533 200.537c0.11 0.11 0.213 0.206 0.309 0.302h280.375c0.096-0.096 0.199-0.192 0.313-0.302l200.53-200.537c0.11-0.11 0.21-0.21 0.302-0.306v-280.377c-0.089-0.096-0.192-0.199-0.302-0.309l-200.53-200.533c-0.114-0.11-0.217-0.21-0.313-0.304h-280.375zM337.337 92.222c11.095-4.93 22.482-6.878 33.863-6.878h281.6c11.378 0 22.766 1.947 33.863 6.878 10.905 4.848 19.385 11.634 26.176 18.418l200.53 200.533c6.784 6.784 13.568 15.266 18.418 26.176 4.928 11.095 6.88 22.482 6.88 33.863v281.602c0 11.378-1.952 22.766-6.88 33.863-4.85 10.905-11.634 19.385-18.418 26.169l-200.53 200.537c-6.791 6.784-15.271 13.568-26.176 18.418-11.097 4.928-22.482 6.873-33.863 6.873h-281.6c-11.378 0-22.768-1.945-33.863-6.873-10.907-4.85-19.39-11.634-26.176-18.418l-200.533-200.537c-6.784-6.784-13.57-15.264-18.418-26.169-4.93-11.097-6.878-22.482-6.878-33.863v-281.602c0-11.378 1.947-22.768 6.878-33.863 4.848-10.907 11.634-19.39 18.418-26.176l200.533-200.533c6.786-6.784 15.266-13.57 26.176-18.418zM469.333 512.009v-170.665c0-23.563 19.102-42.667 42.665-42.667s42.667 19.104 42.667 42.667v170.665c0 23.563-19.104 42.667-42.667 42.667s-42.665-19.104-42.665-42.667zM469.333 682.674c0-23.566 19.102-42.663 42.665-42.663h0.427c23.563 0 42.667 19.097 42.667 42.663s-19.104 42.67-42.667 42.67h-0.427c-23.563 0-42.665-19.104-42.665-42.67z"
        ],
        "isMulticolor": false,
        "isMulticolor2": false,
        "tags": ["error-hexagon"],
        "defaultCode": 59668,
        "grid": 0,
        "attrs": [],
        "colorPermutations": { "1311381441168168168181822511": [] }
      },
      "attrs": [],
      "properties": {
        "id": 21,
        "order": 63,
        "ligatures": "",
        "prevSize": 32,
        "code": 59669,
        "name": "error-hexagon"
      },
      "setIdx": 0,
      "setId": 1,
      "iconIdx": 32
    },
    {
      "icon": {
        "paths": [
          "M446.562 101.737c19.696-11.611 42.144-17.737 65.008-17.737s45.312 6.126 65.008 17.737c19.561 11.534 35.701 28.062 46.763 47.886l302.743 522.338c1.006 1.735 1.888 3.534 2.638 5.394 7.833 19.36 10.809 40.338 8.672 61.113-2.144 20.775-9.33 40.711-20.946 58.066-11.609 17.358-27.296 31.609-45.682 41.511-18.386 9.906-38.919 15.161-59.801 15.31h-597.632c-0.779 0-1.554-0.025-2.325-0.064-1.504 0.082-3.029 0.082-4.567 0.007-20.391-1.049-40.233-6.962-57.872-17.248s-32.562-24.64-43.525-41.863c-10.962-17.23-17.643-36.825-19.488-57.159s1.202-40.814 8.887-59.73c0.747-1.838 1.621-3.623 2.617-5.337l302.743-522.338c11.063-19.824 27.202-36.352 46.763-47.888zM210.974 768.082c0.779-0.039 1.566-0.064 2.357-0.064h597.159c6.919-0.064 13.714-1.817 19.808-5.102 6.13-3.296 11.36-8.050 15.232-13.838 3.865-5.785 6.265-12.43 6.976-19.353 0.626-6.094-0.064-12.242-2.023-18.030l-301.579-520.354c-3.689-6.67-9.097-12.226-15.664-16.098s-14.048-5.913-21.669-5.913c-7.623 0-15.104 2.041-21.671 5.913s-11.975 9.431-15.664 16.098l-0.418 0.741-301.182 519.641c-1.92 5.646-2.64 11.641-2.098 17.6 0.615 6.777 2.841 13.305 6.496 19.054 3.655 5.742 8.629 10.521 14.507 13.952 5.881 3.424 12.494 5.394 19.291 5.746 0.046 0.007 0.094 0.007 0.139 0.007zM511.998 341.355c23.563 0 42.667 19.104 42.667 42.667v85.333c0 23.563-19.104 42.667-42.667 42.667s-42.665-19.104-42.665-42.667v-85.333c0-23.563 19.102-42.667 42.665-42.667zM511.998 597.355c23.563 0 42.667 19.104 42.667 42.663v0.43c0 23.566-19.104 42.67-42.667 42.67s-42.665-19.104-42.665-42.67v-0.43c0-23.561 19.102-42.663 42.665-42.663z"
        ],
        "isMulticolor": false,
        "isMulticolor2": false,
        "tags": ["alert"],
        "defaultCode": 59669,
        "grid": 0,
        "attrs": [],
        "colorPermutations": { "1311381441168168168181822511": [] }
      },
      "attrs": [],
      "properties": {
        "id": 22,
        "order": 64,
        "ligatures": "",
        "prevSize": 32,
        "code": 59670,
        "name": "alert"
      },
      "setIdx": 0,
      "setId": 1,
      "iconIdx": 33
    },
    {
      "icon": {
        "paths": [
          "M87.033 87.959c2.871-2.871 6.763-4.482 10.823-4.482h550.955c4.062 0 7.952 1.611 10.825 4.482 2.866 2.871 4.48 6.763 4.48 10.823v812.869l-112.295-80.208c-10.645-7.602-24.939-7.602-35.584 0l-142.903 102.075-142.905-102.075c-10.642-7.602-24.939-7.602-35.582 0l-112.297 80.208v-812.869c0-4.059 1.611-7.952 4.482-10.823zM97.856 22.261c-20.295 0-39.76 8.062-54.11 22.414s-22.414 33.815-22.414 54.11v872.35c0 11.465 6.407 21.968 16.603 27.214 10.194 5.248 22.466 4.357 31.797-2.309l142.905-102.075 142.905 102.075c10.642 7.602 24.939 7.602 35.582 0l142.903-102.075 142.903 102.075c9.33 6.665 21.602 7.557 31.799 2.309 10.192-5.243 16.601-15.749 16.601-27.214v-872.35c0-20.295-8.064-39.76-22.414-54.11s-33.813-22.414-54.11-22.414h-550.955zM235.593 435.477c-16.905 0-30.608 13.705-30.608 30.608s13.703 30.608 30.608 30.608h275.481c16.905 0 30.608-13.705 30.608-30.608s-13.705-30.608-30.608-30.608h-275.481zM204.985 649.742c0-16.91 13.703-30.608 30.608-30.608h275.481c16.905 0 30.608 13.701 30.608 30.608 0 16.905-13.705 30.606-30.608 30.606h-275.479c-16.905 0-30.608-13.701-30.608-30.606zM235.593 251.824c-16.905 0-30.608 13.705-30.608 30.608s13.703 30.608 30.608 30.608h275.481c16.905 0 30.608-13.703 30.608-30.608s-13.705-30.608-30.608-30.608h-275.481z"
        ],
        "width": 725,
        "isMulticolor": false,
        "isMulticolor2": false,
        "tags": ["expenses"],
        "defaultCode": 59670,
        "grid": 0,
        "attrs": [],
        "colorPermutations": { "1311381441168168168181822511": [] }
      },
      "attrs": [],
      "properties": {
        "id": 23,
        "order": 65,
        "ligatures": "",
        "prevSize": 32,
        "code": 59671,
        "name": "expenses"
      },
      "setIdx": 0,
      "setId": 1,
      "iconIdx": 34
    },
    {
      "icon": {
        "paths": [
          "M597.232 207.344c0-17.241-5.136-34.304-14.704-48.729-9.57-14.425-23.031-25.685-38.976-32.368-15.769-6.51-33.305-8.091-50.313-4.75-16.832 3.518-32.423 11.961-44.466 24.277-9.211 9.147-16.123 20.231-20.553 32.368s-6.023 25.157-4.782 38.174c1.239 12.841 5.314 25.333 12.048 36.416s15.591 20.583 26.393 27.794c11.87 7.915 25.515 12.841 39.685 14.249 14.174 1.408 28.523-0.704 41.808-6.158 10.633-4.574 20.199-11.083 28.169-19.527 16.478-16.361 25.689-38.702 25.689-61.746zM319.262 346.505l155.015 270.21c19.486 34.654 52.437 34.654 72.103 0l68.032-118.921c-96.91 23.749-240.229-55.591-295.147-151.291zM720.955 207.339c-33.131 0-73.52 29.906-89.817 66.496 0 0-37.739 84.969-120.823 84.969-28.523 0-56.158-10.379-77.774-29.202 27.28 33.248 120.29 105.198 257.767 36.064l54.562-94.997c20.018-35.008 9.038-63.33-23.915-63.33zM432.498 329.435c-17.895-15.481-32.599-34.48-42.873-55.767-16.297-36.592-56.69-66.496-89.641-66.496-33.305 0.176-44.112 28.498-24.094 63.33l43.403 75.822c54.919 95.698 198.24 175.214 295.499 151.289l75.648-131.938c-137.831 69.136-230.661-2.816-257.941-36.24zM605.2 627.323c-0.725 8.295-1.493 16.571-2.219 24.866 76.391 10.786 133.017 35.259 139.417 65.536 9.531 45.022-137.744 65.28-232.619 64.334-94.873-0.955-239.438-19.312-226.8-64.341 8.295-29.552 64.103-53.538 138.496-64.709-0.743-8.32-1.586-16.64-2.304-24.951-95.625 10.546-175.291 36.514-207.12 70.366h-107.698l-19.022 39.449h112.35c8.729 46.421 106.043 86.494 245.198 96.615l-4.761 56.585h137.728l-1.383-56.576c139.861-10.128 239.931-50.201 251.854-96.624h112.35l-16.299-39.449h-107.698c-30.233-34.704-111.344-61.099-209.467-71.099z"
        ],
        "isMulticolor": false,
        "isMulticolor2": false,
        "tags": ["employed-status"],
        "defaultCode": 59671,
        "grid": 0,
        "attrs": [],
        "colorPermutations": { "1311381441168168168181822511": [] }
      },
      "attrs": [],
      "properties": {
        "id": 24,
        "order": 66,
        "ligatures": "",
        "prevSize": 32,
        "code": 59672,
        "name": "employed-status"
      },
      "setIdx": 0,
      "setId": 1,
      "iconIdx": 35
    },
    {
      "icon": {
        "paths": [
          "M450.133 108.032c17.314-14.592 39.227-22.594 61.867-22.594s44.553 8.002 61.867 22.594l288 242.857c21.63 18.263 34.133 45.099 34.133 73.387v418.261c0 19.806-7.865 38.795-21.872 52.798-14 14.007-32.992 21.872-52.798 21.872h-149.333c-19.806 0-38.795-7.865-52.798-21.872-14.007-14-21.872-32.992-21.872-52.798v-234.663c0-2.83-1.122-5.543-3.122-7.545s-4.715-3.122-7.541-3.122h-149.335c-2.83 0-5.543 1.122-7.543 3.122s-3.125 4.715-3.125 7.545v234.663c0 19.806-7.867 38.795-21.87 52.798-14.002 14.007-32.994 21.872-52.798 21.872h-149.333c-9.806 0-19.515-1.931-28.574-5.682s-17.289-9.253-24.224-16.19c-6.933-6.93-12.432-15.166-16.185-24.222s-5.685-18.768-5.685-28.574v-418.261c0-28.288 12.501-55.125 34.133-73.387l288-242.857zM532.606 156.971c-5.767-4.857-13.065-7.52-20.606-7.52s-14.839 2.663-20.606 7.52l-288.002 242.816c-3.563 3.001-6.43 6.743-8.398 10.965s-2.99 8.825-2.994 13.483v418.261c0 5.888 4.779 10.667 10.667 10.667h149.333c2.83 0 5.543-1.127 7.543-3.122 2-2 3.125-4.715 3.125-7.545v-234.667c0-41.257 33.449-74.663 74.665-74.663h149.335c41.216 0 74.663 33.406 74.663 74.663v234.667c0 5.888 4.779 10.667 10.667 10.667h149.333c2.83 0 5.543-1.127 7.545-3.122 2-2 3.122-4.715 3.122-7.545v-418.217c-0.005-4.658-1.029-9.259-2.992-13.483-1.968-4.224-4.837-7.966-8.4-10.965l-288-242.857z"
        ],
        "isMulticolor": false,
        "isMulticolor2": false,
        "tags": ["home"],
        "defaultCode": 59672,
        "grid": 0,
        "attrs": [],
        "colorPermutations": { "1311381441168168168181822511": [] }
      },
      "attrs": [],
      "properties": {
        "id": 25,
        "order": 67,
        "ligatures": "",
        "prevSize": 32,
        "code": 59673,
        "name": "home"
      },
      "setIdx": 0,
      "setId": 1,
      "iconIdx": 36
    },
    {
      "icon": {
        "paths": [
          "M1006.906 103.389c20.603-19.614 48.021-30.458 76.464-30.242s55.694 11.472 75.997 31.397 32.074 46.955 32.826 75.39c0.752 28.437-9.573 56.051-28.795 77.021l-583.547 729.798c-10.035 10.81-22.146 19.482-35.606 25.502-13.464 6.021-28.002 9.264-42.749 9.538-14.746 0.272-29.394-2.43-43.070-7.949-13.675-5.515-26.101-13.736-36.528-24.165l-386.984-386.984c-10.778-10.043-19.421-22.152-25.416-35.606s-9.219-27.979-9.478-42.707 2.45-29.357 7.966-43.014c5.517-13.659 13.728-26.066 24.144-36.482s22.822-18.627 36.482-24.144 28.288-8.226 43.016-7.966c14.728 0.259 29.253 3.485 42.707 9.478s25.565 14.638 35.606 25.416l306.254 306.107 507.934-647.168c0.914-1.126 1.891-2.2 2.923-3.218h-0.146z"
        ],
        "width": 1317,
        "isMulticolor": false,
        "isMulticolor2": false,
        "tags": ["check"],
        "defaultCode": 59673,
        "grid": 0,
        "attrs": [],
        "colorPermutations": { "1311381441168168168181822511": [] }
      },
      "attrs": [],
      "properties": {
        "id": 26,
        "order": 68,
        "ligatures": "",
        "prevSize": 32,
        "code": 59674,
        "name": "check"
      },
      "setIdx": 0,
      "setId": 1,
      "iconIdx": 37
    },
    {
      "icon": {
        "paths": [
          "M468.266 137.891c41.949-41.949 98.844-65.516 158.17-65.516s116.221 23.567 158.173 65.516c41.946 41.949 65.51 98.845 65.51 158.17s-23.565 116.221-65.51 158.17l-277.336 277.334c-24.975 24.973-58.849 39.008-94.17 39.008s-69.195-14.035-94.17-39.008c-24.975-24.973-39.006-58.848-39.006-94.17s14.031-69.195 39.006-94.17l277.334-277.333c16.662-16.662 43.677-16.662 60.342 0 16.659 16.662 16.659 43.677 0 60.34l-277.336 277.333c-8.972 8.972-14.013 21.142-14.013 33.83 0 12.685 5.041 24.858 14.013 33.831s21.142 14.010 33.83 14.010c12.689 0 24.858-5.037 33.83-14.010l277.331-277.334c25.952-25.946 40.525-61.137 40.525-97.83s-14.573-71.884-40.525-97.83c-25.946-25.946-61.133-40.523-97.827-40.523s-71.884 14.577-97.83 40.523l-277.333 277.333c-42.92 42.92-67.032 101.132-67.032 161.83s24.113 118.913 67.032 161.831c42.92 42.918 101.132 67.034 161.83 67.034s118.91-24.115 161.83-67.034l277.331-277.334c16.666-16.662 43.68-16.662 60.346 0 16.659 16.662 16.659 43.677 0 60.34l-277.336 277.334c-58.923 58.925-138.84 92.026-222.17 92.026s-163.247-33.101-222.17-92.026c-58.923-58.925-92.026-138.842-92.026-222.17 0-83.33 33.103-163.247 92.026-222.17l277.334-277.333z"
        ],
        "isMulticolor": false,
        "isMulticolor2": false,
        "tags": ["attachment"],
        "defaultCode": 59676,
        "grid": 0,
        "attrs": [],
        "colorPermutations": { "1311381441168168168181822511": [] }
      },
      "attrs": [],
      "properties": {
        "id": 29,
        "order": 71,
        "ligatures": "",
        "prevSize": 32,
        "code": 59677,
        "name": "attachment"
      },
      "setIdx": 0,
      "setId": 1,
      "iconIdx": 40
    },
    {
      "icon": {
        "paths": [
          "M298.656 170.708c-11.316 0-22.168 4.495-30.17 12.497s-12.497 18.854-12.497 30.17v597.332c0 11.315 4.495 22.17 12.497 30.17s18.854 12.499 30.17 12.499h426.669c11.315 0 22.17-4.499 30.17-12.499s12.493-18.854 12.493-30.17v-426.666h-127.997c-22.632 0-44.337-8.991-60.34-24.993s-24.994-37.708-24.994-60.34v-128h-256zM639.99 231.048l67.658 67.66h-67.658v-67.66zM208.147 122.865c24.004-24.004 56.562-37.491 90.509-37.491h298.667c11.316 0 22.168 4.495 30.17 12.497l213.333 213.333c8 8.001 12.499 18.854 12.499 30.17v469.332c0 33.952-13.485 66.509-37.491 90.509-24.006 24.006-56.563 37.491-90.509 37.491h-426.669c-33.948 0-66.505-13.485-90.509-37.491-24.004-24-37.491-56.557-37.491-90.509v-597.332c0-33.948 13.486-66.505 37.491-90.509z"
        ],
        "isMulticolor": false,
        "isMulticolor2": false,
        "tags": ["file"],
        "defaultCode": 59677,
        "grid": 0,
        "attrs": [],
        "colorPermutations": { "1311381441168168168181822511": [] }
      },
      "attrs": [],
      "properties": {
        "id": 30,
        "order": 72,
        "ligatures": "",
        "prevSize": 32,
        "code": 59678,
        "name": "file"
      },
      "setIdx": 0,
      "setId": 1,
      "iconIdx": 41
    },
    {
      "icon": {
        "paths": [
          "M438.857 48.714c26.93 0 48.762 21.831 48.762 48.762v467.422l160.568-160.568c19.043-19.042 49.917-19.042 68.96 0s19.043 49.917 0 68.96l-243.81 243.81c-19.042 19.040-49.916 19.040-68.959 0l-243.81-243.81c-19.043-19.043-19.043-49.917 0-68.96s49.917-19.042 68.96 0l160.568 160.568v-467.422c0-26.93 21.832-48.762 48.762-48.762zM48.762 682.619c26.931 0 48.762 21.832 48.762 48.762v97.525c0 12.932 5.138 25.337 14.283 34.48s21.547 14.277 34.48 14.277h585.143c12.932 0 25.337-5.135 34.48-14.277s14.285-21.548 14.285-34.48v-97.525c0-26.93 21.826-48.762 48.757-48.762s48.764 21.832 48.764 48.762v97.525c0 38.795-15.411 76.003-42.847 103.439s-64.644 42.847-103.439 42.847h-585.143c-38.797 0-76.006-15.411-103.44-42.847s-42.846-64.644-42.846-103.439v-97.525c0-26.93 21.831-48.762 48.762-48.762z"
        ],
        "width": 878,
        "isMulticolor": false,
        "isMulticolor2": false,
        "tags": ["download"],
        "defaultCode": 59678,
        "grid": 0,
        "attrs": [],
        "colorPermutations": { "1311381441168168168181822511": [] }
      },
      "attrs": [],
      "properties": {
        "id": 31,
        "order": 73,
        "ligatures": "",
        "prevSize": 32,
        "code": 59679,
        "name": "download"
      },
      "setIdx": 0,
      "setId": 1,
      "iconIdx": 42
    },
    {
      "icon": {
        "paths": [
          "M164.343 107.432c-13.411 0-26.274 5.328-35.757 14.811s-14.811 22.345-14.811 35.757v707.951c0 13.411 5.327 26.271 14.811 35.757 9.483 9.481 22.346 14.81 35.757 14.81h505.68c13.411 0 26.271-5.329 35.757-14.81 9.481-9.485 14.81-22.346 14.81-35.757v-505.68h-151.704c-26.821 0-52.546-10.655-71.513-29.622s-29.62-44.691-29.62-71.514v-151.704h-303.409zM568.885 178.946l80.191 80.19h-80.191v-80.19zM57.072 50.729c28.45-28.45 67.037-44.433 107.271-44.433h353.976c13.411 0 26.271 5.328 35.757 14.811l252.841 252.84c9.481 9.483 14.81 22.345 14.81 35.757v556.247c0 40.232-15.982 78.821-44.434 107.27-28.448 28.452-67.034 44.434-107.27 44.434h-505.68c-40.234 0-78.821-15.982-107.271-44.434-28.45-28.448-44.433-67.038-44.433-107.27v-707.951c0-40.234 15.983-78.821 44.433-107.271zM214.911 360.272c0-27.928 22.64-50.568 50.568-50.568h50.568c27.928 0 50.568 22.64 50.568 50.568s-22.64 50.569-50.568 50.569h-50.568c-27.928 0-50.568-22.642-50.568-50.569zM214.911 562.544c0-27.929 22.64-50.57 50.568-50.57h303.407c27.929 0 50.57 22.642 50.57 50.57s-22.642 50.567-50.57 50.567h-303.407c-27.928 0-50.568-22.638-50.568-50.567zM214.911 764.814c0-27.929 22.64-50.567 50.568-50.567h303.407c27.929 0 50.57 22.638 50.57 50.567s-22.642 50.567-50.57 50.567h-303.407c-27.928 0-50.568-22.638-50.568-50.567z"
        ],
        "width": 834,
        "isMulticolor": false,
        "isMulticolor2": false,
        "tags": ["file-text"],
        "defaultCode": 59679,
        "grid": 0,
        "attrs": [],
        "colorPermutations": { "1311381441168168168181822511": [] }
      },
      "attrs": [],
      "properties": {
        "id": 32,
        "order": 74,
        "ligatures": "",
        "prevSize": 32,
        "code": 59680,
        "name": "file-text"
      },
      "setIdx": 0,
      "setId": 1,
      "iconIdx": 43
    },
    {
      "icon": {
        "paths": [
          "M164.343 107.432c-13.411 0-26.274 5.328-35.757 14.811s-14.811 22.345-14.811 35.757v707.951c0 13.411 5.327 26.271 14.811 35.757 9.483 9.481 22.346 14.81 35.757 14.81h505.68c13.411 0 26.271-5.329 35.757-14.81 9.481-9.485 14.81-22.346 14.81-35.757v-505.68h-151.704c-26.821 0-52.546-10.655-71.513-29.622s-29.62-44.691-29.62-71.514v-151.704h-303.409zM568.885 178.946l80.191 80.19h-80.191v-80.19zM57.072 50.729c28.45-28.45 67.037-44.433 107.271-44.433h353.976c13.411 0 26.271 5.328 35.757 14.811l252.841 252.84c9.481 9.483 14.81 22.345 14.81 35.757v556.247c0 40.232-15.982 78.821-44.434 107.27-28.448 28.452-67.038 44.434-107.27 44.434h-505.68c-40.234 0-78.821-15.982-107.271-44.434-28.45-28.448-44.433-67.038-44.433-107.27v-707.951c0-40.234 15.983-78.821 44.433-107.271zM417.181 360.272c27.929 0 50.57 22.64 50.57 50.569h50.567c27.929 0 50.567 22.638 50.567 50.567s-22.638 50.567-50.567 50.567h-126.418c-6.709 0-13.139 2.666-17.88 7.407s-7.406 11.173-7.406 17.878c0 6.705 2.664 13.138 7.406 17.878s11.171 7.407 17.88 7.407h50.567c33.527 0 65.684 13.32 89.391 37.027s37.027 55.865 37.027 89.391c0 33.53-13.32 65.684-37.027 89.391-17.658 17.658-40 29.556-64.106 34.475v2.552c0 27.929-22.642 50.57-50.57 50.57s-50.567-22.642-50.567-50.57h-50.568c-27.928 0-50.568-22.638-50.568-50.567s22.64-50.567 50.568-50.567h126.42c6.705 0 13.138-2.666 17.878-7.407s7.407-11.173 7.407-17.878c0-6.705-2.666-13.138-7.407-17.878s-11.173-7.407-17.878-7.407h-50.567c-33.53 0-65.686-13.316-89.394-37.027-23.708-23.707-37.027-55.861-37.027-89.391 0-33.527 13.319-65.684 37.027-89.391 17.658-17.658 40.002-29.552 64.108-34.475v-2.552c0-27.929 22.639-50.569 50.567-50.569z"
        ],
        "width": 834,
        "isMulticolor": false,
        "isMulticolor2": false,
        "tags": ["file-dollar"],
        "defaultCode": 59680,
        "grid": 0,
        "attrs": [],
        "colorPermutations": { "1311381441168168168181822511": [] }
      },
      "attrs": [],
      "properties": {
        "id": 33,
        "order": 75,
        "ligatures": "",
        "prevSize": 32,
        "code": 59681,
        "name": "file-dollar"
      },
      "setIdx": 0,
      "setId": 1,
      "iconIdx": 44
    },
    {
      "icon": {
        "paths": [
          "M832 416c35.339 0 64 28.661 64 64v64c0 35.339-28.661 64-64 64h-768c-35.339 0-64-28.661-64-64v-64c0-35.339 28.661-64 64-64h768z"
        ],
        "width": 896,
        "isMulticolor": false,
        "isMulticolor2": false,
        "tags": ["minus"],
        "defaultCode": 59681,
        "grid": 0,
        "attrs": [],
        "colorPermutations": { "1311381441168168168181822511": [] }
      },
      "attrs": [],
      "properties": {
        "id": 34,
        "order": 76,
        "ligatures": "",
        "prevSize": 32,
        "code": 59682,
        "name": "minus"
      },
      "setIdx": 0,
      "setId": 1,
      "iconIdx": 45
    },
    {
      "icon": {
        "paths": [
          "M392.005 371.213c0 10.184-4.045 19.952-11.246 27.152-7.202 7.202-16.97 11.248-27.154 11.248s-19.952-4.046-27.152-11.248c-7.202-7.2-11.248-16.968-11.248-27.152s4.046-19.952 11.248-27.154c7.2-7.202 16.968-11.246 27.152-11.246s19.952 4.045 27.154 11.246c7.202 7.202 11.246 16.97 11.246 27.154zM353.605 563.174c10.184 0 19.952-4.045 27.154-11.246s11.246-16.968 11.246-27.154c0-10.184-4.045-19.95-11.246-27.152s-16.97-11.248-27.154-11.248c-10.184 0-19.952 4.046-27.152 11.248-7.202 7.202-11.248 16.968-11.248 27.152 0 10.186 4.046 19.952 11.248 27.154 7.2 7.202 16.968 11.246 27.152 11.246zM392.005 678.4c0 10.184-4.045 19.952-11.246 27.154-7.202 7.2-16.97 11.246-27.154 11.246s-19.952-4.046-27.152-11.246c-7.202-7.202-11.248-16.97-11.248-27.154s4.046-19.952 11.248-27.154c7.2-7.2 16.968-11.246 27.152-11.246s19.952 4.046 27.154 11.246c7.202 7.202 11.246 16.97 11.246 27.154zM494.408 358.374c-6.79 0-13.301 2.698-18.102 7.499-4.802 4.8-7.498 11.312-7.498 18.101s2.696 13.302 7.498 18.102c4.802 4.802 11.312 7.498 18.102 7.498h204.8c6.789 0 13.301-2.696 18.101-7.498 4.802-4.8 7.499-11.312 7.499-18.102s-2.698-13.301-7.499-18.101c-4.8-4.802-11.312-7.499-18.101-7.499h-204.8zM468.808 537.6c0-6.789 2.696-13.301 7.498-18.102s11.312-7.498 18.102-7.498h204.8c6.789 0 13.301 2.698 18.101 7.498 4.802 4.802 7.499 11.314 7.499 18.102s-2.698 13.301-7.499 18.102c-4.8 4.8-11.312 7.498-18.101 7.498h-204.8c-6.79 0-13.301-2.698-18.102-7.498-4.802-4.802-7.498-11.314-7.498-18.102zM494.408 665.594c-6.79 0-13.301 2.698-18.102 7.498-4.802 4.802-7.498 11.314-7.498 18.102 0 6.79 2.696 13.301 7.498 18.102s11.312 7.498 18.102 7.498h204.8c6.789 0 13.301-2.698 18.101-7.498 4.802-4.802 7.499-11.312 7.499-18.102s-2.698-13.301-7.499-18.102c-4.8-4.8-11.312-7.498-18.101-7.498h-204.8zM161.603 255.994c0-27.158 10.787-53.203 29.992-72.408 19.203-19.203 45.25-29.992 72.408-29.992h512c27.157 0 53.203 10.789 72.406 29.992 19.205 19.205 29.994 45.25 29.994 72.408v512c0 27.158-10.789 53.205-29.994 72.408-19.203 19.203-45.25 29.992-72.406 29.992h-512c-27.158 0-53.205-10.789-72.408-29.992-19.205-19.203-29.992-45.25-29.992-72.408v-512zM264.003 204.794c-13.579 0-26.603 5.395-36.205 14.997s-14.995 22.624-14.995 36.203v512c0 13.579 5.394 26.602 14.995 36.205 9.602 9.602 22.626 14.995 36.205 14.995h512c13.579 0 26.602-5.394 36.203-14.995 9.602-9.603 14.997-22.626 14.997-36.205v-512c0-13.579-5.395-26.602-14.997-36.203s-22.624-14.997-36.203-14.997h-512z"
        ],
        "width": 1040,
        "isMulticolor": false,
        "isMulticolor2": false,
        "tags": ["bullet-list"],
        "defaultCode": 59682,
        "grid": 0,
        "attrs": [],
        "colorPermutations": { "1311381441168168168181822511": [] }
      },
      "attrs": [],
      "properties": {
        "id": 35,
        "order": 77,
        "ligatures": "",
        "prevSize": 32,
        "code": 59683,
        "name": "bullet-list"
      },
      "setIdx": 0,
      "setId": 1,
      "iconIdx": 46
    }
  ],
  "height": 1024,
  "metadata": { "name": "icomoon" },
  "preferences": {
    "showGlyphs": true,
    "showQuickUse": true,
    "showQuickUse2": true,
    "showSVGs": true,
    "fontPref": {
      "prefix": "icon-",
      "metadata": { "fontFamily": "icomoon" },
      "metrics": { "emSize": 1024, "baseline": 6.25, "whitespace": 50 },
      "embed": false
    },
    "imagePref": {
      "prefix": "icon-",
      "png": true,
      "useClassSelector": true,
      "color": 0,
      "bgColor": 16777215,
      "classSelector": ".icon",
      "name": "icomoon"
    },
    "historySize": 50,
    "showCodes": true,
    "gridSize": 16
  }
}
