<svg width="164" height="28" viewBox="0 0 164 28" fill="none" xmlns="http://www.w3.org/2000/svg">
<path d="M44.9058 23.1888V10.3871C44.9058 9.4576 44.0609 8.71823 43.3215 8.71823H42.0329V18.6892C41.8216 18.2033 41.4836 17.3372 41.1879 16.7457L38.6529 11.6757C37.6811 9.73223 36.4559 8.71823 34.5547 8.71823H33.1182V21.2875C33.1182 22.555 34.0265 23.1888 34.8715 23.1888H36.0123V12.5418C36.2658 12.8798 36.5826 13.4291 36.984 14.2318L39.6246 19.3652C41.4202 22.8508 42.6455 23.1888 43.7651 23.1888H44.9058Z" fill="white"/>
<path d="M56.598 19.3018V16.6823C56.598 12.7531 54.3165 11.5701 51.7815 11.5701C48.7818 11.5701 47.641 13.0911 47.641 14.3586V15.2669H47.7466C48.1691 14.7388 49.3099 13.9572 51.359 13.9572C53.049 13.9572 53.8095 14.4431 53.8095 16.0486V16.1964H52.8166C48.6339 16.1964 47.1552 17.7386 47.1552 19.7665C47.1552 21.8579 49.0141 23.3789 51.7181 23.3789H52.2885C54.8235 23.3789 56.598 21.71 56.598 19.3018ZM53.8306 19.3229C53.8306 20.4848 53.2391 21.0763 52.0139 21.0763C50.7675 21.0763 50.0493 20.5482 50.0493 19.6609C50.0493 18.7314 50.6619 18.2244 52.8166 18.2244H53.8306V19.3229Z" fill="white"/>
<path d="M58.9491 12.2461V19.0905C58.9491 21.7523 60.3433 23.3155 63.2163 23.3155C64.8641 23.3155 65.7091 22.5762 65.7091 21.4143V20.4003H65.6034C65.1598 20.6749 64.4627 20.8017 63.5543 20.8017C62.4136 20.8017 61.7587 20.2313 61.7587 18.7525V14.2952H64.0191C65.1809 14.2952 65.7091 13.5347 65.7091 12.9432V11.7813H61.7587V9.2041H61.1038C60.6602 9.2041 60.1532 9.5421 59.773 9.98572C59.1604 10.704 58.9491 11.1265 58.9491 12.2461Z" fill="white"/>
<path d="M70.8271 9.30973C70.8271 8.40136 70.0666 7.66199 69.1582 7.66199C68.2498 7.66199 67.5105 8.40136 67.5105 9.30973C67.5105 10.2181 68.2498 10.9786 69.1582 10.9786C70.0666 10.9786 70.8271 10.2181 70.8271 9.30973ZM72.855 21.5833V20.9707H72.3269C71.0806 20.9707 70.5947 20.6115 70.5947 19.4708V14.1473C70.5947 12.7108 69.8342 12.0348 68.5667 12.0348H67.764C67.764 12.0348 67.764 19.0905 67.764 19.7454C67.764 22.048 68.9681 23.2944 71.1651 23.2944C72.3692 23.2944 72.855 22.8085 72.855 21.5833Z" fill="white"/>
<path d="M83.6712 13.1333C83.6712 12.2038 83.312 11.7813 82.3403 11.7813H81.1362C80.7137 14.6332 79.7208 17.6541 78.6434 19.7877C77.4393 17.4428 76.8689 15.2458 76.4676 13.1333C76.3619 12.5207 75.7493 11.7813 74.7776 11.7813H73.2566C73.5101 14.8656 75.4536 19.8299 76.9957 22.1748C77.5661 23.0198 78.0097 23.3155 78.8547 23.3155H79.4039C80.6714 21.5833 81.9389 18.837 82.6994 16.7457C83.3965 14.8444 83.6712 13.4713 83.6712 13.1333Z" fill="white"/>
<path d="M94.9646 15.9429C94.9646 13.2178 92.7676 11.5278 90.4016 11.5278C87.1483 11.5278 84.8246 13.915 84.8246 17.7174C84.8246 21.203 87.592 23.4423 90.4227 23.4423C93.5492 23.4423 94.542 22.3227 94.542 20.865V19.9778H94.4364C93.5281 20.8228 92.1338 21.0552 90.9508 21.0552C89.282 21.0552 87.9722 20.1468 87.761 18.7103H89.62C93.3802 18.7103 94.9646 18.0343 94.9646 15.9429ZM92.3028 15.6049C92.3028 16.4077 91.6902 16.7034 89.0073 16.7034H87.7398L87.761 16.3232C87.8243 15.0134 88.775 13.8938 90.1481 13.8938C91.4578 13.8938 92.3028 14.4642 92.3028 15.6049Z" fill="white"/>
<path d="M112.019 9.62663V8.71826H102.301C101.118 8.71826 100.548 9.60551 100.548 10.3026V11.2532H104.709V21.2453C104.709 22.5339 105.449 23.1888 106.463 23.1888H107.625V11.2532H110.286C111.237 11.2532 112.019 10.3238 112.019 9.62663Z" fill="white"/>
<path d="M123.145 15.943C123.145 13.2179 120.948 11.5279 118.582 11.5279C115.329 11.5279 113.005 13.915 113.005 17.7175C113.005 21.2031 115.772 23.4423 118.603 23.4423C121.73 23.4423 122.722 22.3227 122.722 20.8651V19.9778H122.617C121.708 20.8228 120.314 21.0552 119.131 21.0552C117.462 21.0552 116.153 20.1468 115.941 18.7103H117.8C121.561 18.7103 123.145 18.0343 123.145 15.943ZM120.483 15.605C120.483 16.4077 119.871 16.7035 117.188 16.7035H115.92L115.941 16.3232C116.005 15.0135 116.955 13.8939 118.328 13.8939C119.638 13.8939 120.483 14.4642 120.483 15.605Z" fill="white"/>
<path d="M134.248 19.3018V16.6823C134.248 12.7531 131.967 11.5701 129.432 11.5701C126.432 11.5701 125.292 13.0911 125.292 14.3586V15.267H125.397C125.82 14.7389 126.96 13.9572 129.01 13.9572C130.699 13.9572 131.46 14.4431 131.46 16.0486V16.1965H130.467C126.284 16.1965 124.806 17.7386 124.806 19.7666C124.806 21.8579 126.665 23.3789 129.369 23.3789H129.939C132.474 23.3789 134.248 21.7101 134.248 19.3018ZM131.481 19.323C131.481 20.4848 130.89 21.0763 129.664 21.0763C128.418 21.0763 127.7 20.5482 127.7 19.6609C127.7 18.7315 128.312 18.2245 130.467 18.2245H131.481V19.323Z" fill="white"/>
<path d="M153.056 23.1888V16.3443C153.056 13.1122 150.943 11.5279 148.324 11.5279C146.951 11.5279 145.704 12.2461 145.05 13.3024C144.226 12.2039 143.064 11.5279 141.585 11.5279C138.142 11.5279 136.515 13.5981 136.515 16.7035V21.1186C136.515 22.4283 137.402 23.1888 138.564 23.1888H139.325V16.4711C139.325 14.9079 140.149 14.0417 141.247 14.0417C142.493 14.0417 143.36 14.8445 143.36 16.7246V21.1186C143.36 22.4706 144.183 23.1888 145.43 23.1888H146.19V16.4077C146.19 14.8445 146.972 14.0417 148.113 14.0417C149.359 14.0417 150.204 14.8445 150.204 16.7246V21.1186C150.204 22.4706 150.817 23.1888 152.359 23.1888H153.056Z" fill="white"/>
<path d="M164 19.5976C164 17.7808 162.732 16.7457 160.366 16.3655C158.423 16.0486 158.085 15.8162 158.085 15.2459C158.085 14.5065 158.634 13.9784 160.366 13.9784C161.718 13.9784 163.028 14.4431 163.62 15.0346H163.725V13.9572C163.725 12.8587 162.669 11.5279 160.092 11.5279C157.177 11.5279 155.254 13.3446 155.254 15.4782C155.254 17.2105 156.416 18.1611 158.824 18.4991C160.789 18.7737 161.19 19.0906 161.19 19.7454C161.19 20.5904 160.514 20.9918 159.12 20.9918C157.768 20.9918 156.31 20.4848 155.698 19.9144H155.592V21.2031C155.592 22.3649 157.155 23.4423 159.247 23.4423C162.31 23.4423 164 22.0058 164 19.5976Z" fill="white"/>
<path d="M17.1138 4.5208C17.1138 3.63057 16.8485 2.74943 16.3545 2.00455C15.8606 1.25967 15.1653 0.678294 14.342 0.333105C13.5278 -0.00300095 12.6222 -0.0847564 11.744 0.0878384C10.8749 0.269517 10.0699 0.705546 9.44783 1.34142C8.97213 1.81379 8.61536 2.38607 8.38666 3.01287C8.15796 3.63966 8.07563 4.31187 8.13966 4.98408C8.2037 5.64721 8.4141 6.29217 8.76173 6.86445C9.10935 7.43674 9.56675 7.92728 10.1248 8.29972C10.7377 8.70849 11.4421 8.96284 12.1739 9.03552C12.9058 9.10819 13.6467 8.99918 14.3328 8.71758C14.8817 8.4814 15.3757 8.14529 15.7874 7.70926C16.6381 6.86446 17.1138 5.71079 17.1138 4.5208Z" fill="#5152FB"/>
<path d="M2.76025 11.7063L10.7647 25.6592C11.771 27.4488 13.4725 27.4488 14.488 25.6592L18.0008 19.5185C12.9968 20.7448 5.59613 16.648 2.76025 11.7063Z" fill="#FDBC42"/>
<path d="M23.4993 4.52087C21.7887 4.52087 19.7029 6.06514 18.8613 7.9546C18.8613 7.9546 16.9128 12.3421 12.6224 12.3421C11.1496 12.3421 9.7225 11.8062 8.60645 10.8342C10.0152 12.5511 14.8179 16.2664 21.9167 12.6964L24.7343 7.79109C25.768 5.98339 25.2009 4.52087 23.4993 4.52087Z" fill="#5152FB"/>
<path d="M8.60609 10.8251C7.68215 10.0257 6.92286 9.0446 6.39228 7.94545C5.55067 6.05599 3.46493 4.51172 1.7634 4.51172C0.0435824 4.5208 -0.514444 5.98332 0.519277 7.78194L2.76053 11.6971C5.59641 16.6388 12.9971 20.7447 18.0194 19.5093L21.9255 12.6963C14.8084 16.2663 10.0149 12.551 8.60609 10.8251Z" fill="#FA4769"/>
</svg>
