<svg width="32" height="32" viewBox="0 0 32 32" fill="none" xmlns="http://www.w3.org/2000/svg">
<circle cx="16" cy="16" r="16" fill="#1D2C40"/>
<path d="M18.9569 9.37917C18.9569 8.79254 18.7821 8.21189 18.4565 7.72103C18.131 7.23017 17.6729 6.84706 17.1303 6.61959C16.5938 6.39811 15.997 6.34423 15.4183 6.45797C14.8456 6.57769 14.3151 6.86502 13.9052 7.28405C13.5917 7.59532 13.3566 7.97244 13.2059 8.38548C13.0552 8.79852 13.0009 9.24149 13.0431 9.68446C13.0853 10.1214 13.224 10.5465 13.4531 10.9236C13.6821 11.3007 13.9836 11.6239 14.3513 11.8694C14.7552 12.1388 15.2193 12.3064 15.7016 12.3542C16.1839 12.4021 16.6722 12.3303 17.1243 12.1447C17.486 11.9891 17.8115 11.7676 18.0828 11.4803C18.6434 10.9236 18.9569 10.1633 18.9569 9.37917Z" fill="#5152FB"/>
<path d="M9.5 14.1141L14.7747 23.3087C15.4379 24.4879 16.5591 24.4879 17.2283 23.3087L19.5431 19.2621C16.2456 20.0702 11.3688 17.3705 9.5 14.1141Z" fill="#FDBC42"/>
<path d="M23.1656 9.37915C22.0383 9.37915 20.6639 10.3968 20.1093 11.6419C20.1093 11.6419 18.8252 14.5332 15.998 14.5332C15.0274 14.5332 14.087 14.18 13.3516 13.5395C14.2799 14.6708 17.4448 17.1191 22.1227 14.7666L23.9794 11.5341C24.6606 10.3429 24.2868 9.37915 23.1656 9.37915Z" fill="#5152FB"/>
<path d="M13.3509 13.5334C12.742 13.0066 12.2417 12.3601 11.892 11.6358C11.3374 10.3907 9.96298 9.37305 8.84172 9.37305C7.70841 9.37903 7.34068 10.3428 8.02188 11.528L9.4988 14.108C11.3676 17.3645 16.2444 20.0702 19.554 19.2561L22.128 14.7665C17.438 17.119 14.2792 14.6707 13.3509 13.5334Z" fill="#FA4769"/>
</svg>
